rom/simulation/qsim/rom1021.msim.vcd
$comment
	File created using the following command:
		vcd file rom1021.msim.vcd -direction
$end
$date
	Wed Oct 09 16:11:45 2024
$end
$version
	ModelSim Version 10.5b
$end
$timescale
	1ps
$end

$scope module rom1021_vlg_vec_tst $end
$var reg 6 ! address [5:0] $end
$var reg 1 " clock $end
$var wire 1 # q [23] $end
$var wire 1 $ q [22] $end
$var wire 1 % q [21] $end
$var wire 1 & q [20] $end
$var wire 1 ' q [19] $end
$var wire 1 ( q [18] $end
$var wire 1 ) q [17] $end
$var wire 1 * q [16] $end
$var wire 1 + q [15] $end
$var wire 1 , q [14] $end
$var wire 1 - q [13] $end
$var wire 1 . q [12] $end
$var wire 1 / q [11] $end
$var wire 1 0 q [10] $end
$var wire 1 1 q [9] $end
$var wire 1 2 q [8] $end
$var wire 1 3 q [7] $end
$var wire 1 4 q [6] $end
$var wire 1 5 q [5] $end
$var wire 1 6 q [4] $end
$var wire 1 7 q [3] $end
$var wire 1 8 q [2] $end
$var wire 1 9 q [1] $end
$var wire 1 : q [0] $end

$scope module i1 $end
$var wire 1 ; gnd $end
$var wire 1 < vcc $end
$var wire 1 = unknown $end
$var tri1 1 > devclrn $end
$var tri1 1 ? devpor $end
$var tri1 1 @ devoe $end
$var wire 1 A q[23]~output_o $end
$var wire 1 B q[22]~output_o $end
$var wire 1 C q[21]~output_o $end
$var wire 1 D q[20]~output_o $end
$var wire 1 E q[19]~output_o $end
$var wire 1 F q[18]~output_o $end
$var wire 1 G q[17]~output_o $end
$var wire 1 H q[16]~output_o $end
$var wire 1 I q[15]~output_o $end
$var wire 1 J q[14]~output_o $end
$var wire 1 K q[13]~output_o $end
$var wire 1 L q[12]~output_o $end
$var wire 1 M q[11]~output_o $end
$var wire 1 N q[10]~output_o $end
$var wire 1 O q[9]~output_o $end
$var wire 1 P q[8]~output_o $end
$var wire 1 Q q[7]~output_o $end
$var wire 1 R q[6]~output_o $end
$var wire 1 S q[5]~output_o $end
$var wire 1 T q[4]~output_o $end
$var wire 1 U q[3]~output_o $end
$var wire 1 V q[2]~output_o $end
$var wire 1 W q[1]~output_o $end
$var wire 1 X q[0]~output_o $end
$var wire 1 Y clock~input_o $end
$var wire 1 Z clock~inputclkctrl_outclk $end
$var wire 1 [ address[0]~input_o $end
$var wire 1 \ address[1]~input_o $end
$var wire 1 ] address[2]~input_o $end
$var wire 1 ^ address[3]~input_o $end
$var wire 1 _ address[4]~input_o $end
$var wire 1 ` address[5]~input_o $end
$var wire 1 a inst|srom|rom_block|auto_generated|q_a [23] $end
$var wire 1 b inst|srom|rom_block|auto_generated|q_a [22] $end
$var wire 1 c inst|srom|rom_block|auto_generated|q_a [21] $end
$var wire 1 d inst|srom|rom_block|auto_generated|q_a [20] $end
$var wire 1 e inst|srom|rom_block|auto_generated|q_a [19] $end
$var wire 1 f inst|srom|rom_block|auto_generated|q_a [18] $end
$var wire 1 g inst|srom|rom_block|auto_generated|q_a [17] $end
$var wire 1 h inst|srom|rom_block|auto_generated|q_a [16] $end
$var wire 1 i inst|srom|rom_block|auto_generated|q_a [15] $end
$var wire 1 j inst|srom|rom_block|auto_generated|q_a [14] $end
$var wire 1 k inst|srom|rom_block|auto_generated|q_a [13] $end
$var wire 1 l inst|srom|rom_block|auto_generated|q_a [12] $end
$var wire 1 m inst|srom|rom_block|auto_generated|q_a [11] $end
$var wire 1 n inst|srom|rom_block|auto_generated|q_a [10] $end
$var wire 1 o inst|srom|rom_block|auto_generated|q_a [9] $end
$var wire 1 p inst|srom|rom_block|auto_generated|q_a [8] $end
$var wire 1 q inst|srom|rom_block|auto_generated|q_a [7] $end
$var wire 1 r inst|srom|rom_block|auto_generated|q_a [6] $end
$var wire 1 s inst|srom|rom_block|auto_generated|q_a [5] $end
$var wire 1 t inst|srom|rom_block|auto_generated|q_a [4] $end
$var wire 1 u inst|srom|rom_block|auto_generated|q_a [3] $end
$var wire 1 v inst|srom|rom_block|auto_generated|q_a [2] $end
$var wire 1 w inst|srom|rom_block|auto_generated|q_a [1] $end
$var wire 1 x inst|srom|rom_block|auto_generated|q_a [0] $end
$var wire 1 y inst|srom|rom_block|auto_generated|ram_block1a0_PORTADATAOUT_bus [35] $end
$var wire 1 z inst|srom|rom_block|auto_generated|ram_block1a0_PORTADATAOUT_bus [34] $end
$var wire 1 { inst|srom|rom_block|auto_generated|ram_block1a0_PORTADATAOUT_bus [33] $end
$var wire 1 | inst|srom|rom_block|auto_generated|ram_block1a0_PORTADATAOUT_bus [32] $end
$var wire 1 } inst|srom|rom_block|auto_generated|ram_block1a0_PORTADATAOUT_bus [31] $end
$var wire 1 ~ inst|srom|rom_block|auto_generated|ram_block1a0_PORTADATAOUT_bus [30] $end
$var wire 1 !! inst|srom|rom_block|auto_generated|ram_block1a0_PORTADATAOUT_bus [29] $end
$var wire 1 "! inst|srom|rom_block|auto_generated|ram_block1a0_PORTADATAOUT_bus [28] $end
$var wire 1 #! inst|srom|rom_block|auto_generated|ram_block1a0_PORTADATAOUT_bus [27] $end
$var wire 1 $! inst|srom|rom_block|auto_generated|ram_block1a0_PORTADATAOUT_bus [26] $end
$var wire 1 %! inst|srom|rom_block|auto_generated|ram_block1a0_PORTADATAOUT_bus [25] $end
$var wire 1 &! inst|srom|rom_block|auto_generated|ram_block1a0_PORTADATAOUT_bus [24] $end
$var wire 1 '! inst|srom|rom_block|auto_generated|ram_block1a0_PORTADATAOUT_bus [23] $end
$var wire 1 (! inst|srom|rom_block|auto_generated|ram_block1a0_PORTADATAOUT_bus [22] $end
$var wire 1 )! inst|srom|rom_block|auto_generated|ram_block1a0_PORTADATAOUT_bus [21] $end
$var wire 1 *! inst|srom|rom_block|auto_generated|ram_block1a0_PORTADATAOUT_bus [20] $end
$var wire 1 +! inst|srom|rom_block|auto_generated|ram_block1a0_PORTADATAOUT_bus [19] $end
$var wire 1 ,! inst|srom|rom_block|auto_generated|ram_block1a0_PORTADATAOUT_bus [18] $end
$var wire 1 -! inst|srom|rom_block|auto_generated|ram_block1a0_PORTADATAOUT_bus [17] $end
$var wire 1 .! inst|srom|rom_block|auto_generated|ram_block1a0_PORTADATAOUT_bus [16] $end
$var wire 1 /! inst|srom|rom_block|auto_generated|ram_block1a0_PORTADATAOUT_bus [15] $end
$var wire 1 0! inst|srom|rom_block|auto_generated|ram_block1a0_PORTADATAOUT_bus [14] $end
$var wire 1 1! inst|srom|rom_block|auto_generated|ram_block1a0_PORTADATAOUT_bus [13] $end
$var wire 1 2! inst|srom|rom_block|auto_generated|ram_block1a0_PORTADATAOUT_bus [12] $end
$var wire 1 3! inst|srom|rom_block|auto_generated|ram_block1a0_PORTADATAOUT_bus [11] $end
$var wire 1 4! inst|srom|rom_block|auto_generated|ram_block1a0_PORTADATAOUT_bus [10] $end
$var wire 1 5! inst|srom|rom_block|auto_generated|ram_block1a0_PORTADATAOUT_bus [9] $end
$var wire 1 6! inst|srom|rom_block|auto_generated|ram_block1a0_PORTADATAOUT_bus [8] $end
$var wire 1 7! inst|srom|rom_block|auto_generated|ram_block1a0_PORTADATAOUT_bus [7] $end
$var wire 1 8! inst|srom|rom_block|auto_generated|ram_block1a0_PORTADATAOUT_bus [6] $end
$var wire 1 9! inst|srom|rom_block|auto_generated|ram_block1a0_PORTADATAOUT_bus [5] $end
$var wire 1 :! inst|srom|rom_block|auto_generated|ram_block1a0_PORTADATAOUT_bus [4] $end
$var wire 1 ;! inst|srom|rom_block|auto_generated|ram_block1a0_PORTADATAOUT_bus [3] $end
$var wire 1 <! inst|srom|rom_block|auto_generated|ram_block1a0_PORTADATAOUT_bus [2] $end
$var wire 1 =! inst|srom|rom_block|auto_generated|ram_block1a0_PORTADATAOUT_bus [1] $end
$var wire 1 >! inst|srom|rom_block|auto_generated|ram_block1a0_PORTADATAOUT_bus [0] $end
$upscope $end
$upscope $end
$enddefinitions $end
#0
$dumpvars
b0 !
0"
0:
09
08
07
06
05
04
03
02
01
00
0/
0.
0-
0,
0+
0*
0)
0(
0'
0&
0%
0$
0#
0;
1<
x=
1>
1?
1@
0A
0B
0C
0D
0E
0F
0G
0H
0I
0J
0K
0L
0M
0N
0O
0P
0Q
0R
0S
0T
0U
0V
0W
0X
0Y
0Z
0[
0\
0]
0^
0_
0`
0x
0w
0v
0u
0t
0s
0r
0q
0p
0o
0n
0m
0l
0k
0j
0i
0h
0g
0f
0e
0d
0c
0b
0a
0>!
0=!
0<!
0;!
0:!
09!
08!
07!
06!
05!
04!
03!
02!
01!
00!
0/!
0.!
0-!
0,!
0+!
0*!
0)!
0(!
0'!
0&!
0%!
0$!
0#!
0"!
0!!
0~
0}
0|
0{
0z
0y
$end
#10000
1"
1Y
1Z
#10001
1:!
16!
1/!
1.!
1t
1p
1i
1h
1H
1I
1P
1T
16
12
1+
1*
#20000
b1 !
0"
1[
0Y
0Z
#30000
1"
1Y
1Z
#30001
1=!
1<!
0:!
06!
15!
11!
0/!
0.!
1)!
1w
1v
0t
0p
1o
1k
0i
0h
1c
1C
0H
0I
1K
1O
0P
0T
1V
1W
19
18
06
02
11
1-
0+
0*
1%
#40000
b11 !
b10 !
0"
0[
1\
0Y
0Z
#50000
1"
1Y
1Z
#50001
0=!
0<!
05!
01!
0)!
0w
0v
0o
0k
0c
0C
0K
0O
0V
0W
09
08
01
0-
0%
#60000
b11 !
0"
1[
0Y
0Z
#70000
1"
1Y
1Z
#70001
1=!
1;!
19!
17!
15!
13!
11!
1/!
1-!
1+!
1)!
1'!
1w
1u
1s
1q
1o
1m
1k
1i
1g
1e
1c
1a
1A
1C
1E
1G
1I
1K
1M
1O
1Q
1S
1U
1W
19
17
15
13
11
1/
1-
1+
1)
1'
1%
1#
#80000
b111 !
b101 !
b100 !
0"
0[
0\
1]
0Y
0Z
#90000
1"
1Y
1Z
#90001
1<!
0;!
1:!
09!
18!
07!
05!
14!
03!
12!
0/!
0+!
1*!
0)!
0'!
1v
0u
1t
0s
1r
0q
0o
1n
0m
1l
0i
0e
1d
0c
0a
0A
0C
1D
0E
0I
1L
0M
1N
0O
0Q
1R
0S
1T
0U
1V
18
07
16
05
14
03
01
10
0/
1.
0+
0'
1&
0%
0#
#100000
b101 !
0"
1[
0Y
0Z
#110000
1"
1Y
1Z
#110001
0=!
0<!
0:!
08!
04!
02!
01!
0-!
0*!
0w
0v
0t
0r
0n
0l
0k
0g
0d
0D
0G
0K
0L
0N
0R
0T
0V
0W
09
08
06
04
00
0.
0-
0)
0&
#120000
b111 !
b110 !
0"
0[
1\
0Y
0Z
#130000
1"
1Y
1Z
#140000
b111 !
0"
1[
0Y
0Z
#150000
1"
1Y
1Z
#160000
b1111 !
b1011 !
b1001 !
b1000 !
0"
0[
0\
0]
1^
0Y
0Z
#170000
1"
1Y
1Z
#180000
b1001 !
0"
1[
0Y
0Z
#190000
1"
1Y
1Z
#200000
b1011 !
b1010 !
0"
0[
1\
0Y
0Z
#210000
1"
1Y
1Z
#210001
1:!
12!
1t
1l
1L
1T
16
1.
#220000
b1011 !
0"
1[
0Y
0Z
#230000
1"
1Y
1Z
#230001
1>!
1;!
17!
16!
13!
1/!
1.!
1+!
1*!
1'!
1x
1u
1q
1p
1m
1i
1h
1e
1d
1a
1A
1D
1E
1H
1I
1M
1P
1Q
1U
1X
1:
17
13
12
1/
1+
1*
1'
1&
1#
#240000
b1111 !
b1101 !
b1100 !
0"
0[
0\
1]
0Y
0Z
#250000
1"
1Y
1Z
#250001
0>!
0;!
0:!
07!
06!
03!
02!
0/!
0.!
0+!
0*!
0'!
0x
0u
0t
0q
0p
0m
0l
0i
0h
0e
0d
0a
0A
0D
0E
0H
0I
0L
0M
0P
0Q
0T
0U
0X
0:
07
06
03
02
0/
0.
0+
0*
0'
0&
0#
#260000
b1101 !
0"
1[
0Y
0Z
#270000
1"
1Y
1Z
#280000
b1111 !
b1110 !
0"
0[
1\
0Y
0Z
#290000
1"
1Y
1Z
#300000
b1111 !
0"
1[
0Y
0Z
#310000
1"
1Y
1Z
#320000
b11111 !
b10111 !
b10011 !
b10001 !
b10000 !
0"
0[
0\
0]
0^
1_
0Y
0Z
#330000
1"
1Y
1Z
#340000
b10001 !
0"
1[
0Y
0Z
#350000
1"
1Y
1Z
#360000
b10011 !
b10010 !
0"
0[
1\
0Y
0Z
#370000
1"
1Y
1Z
#380000
b10011 !
0"
1[
0Y
0Z
#390000
1"
1Y
1Z
#400000
b10111 !
b10101 !
b10100 !
0"
0[
0\
1]
0Y
0Z
#410000
1"
1Y
1Z
#410001
1;!
17!
13!
1/!
1+!
1'!
1u
1q
1m
1i
1e
1a
1A
1E
1I
1M
1Q
1U
17
13
1/
1+
1'
1#
#420000
b10101 !
0"
1[
0Y
0Z
#430000
1"
1Y
1Z
#430001
0;!
07!
03!
0/!
0+!
0'!
0u
0q
0m
0i
0e
0a
0A
0E
0I
0M
0Q
0U
07
03
0/
0+
0'
0#
#440000
b10111 !
b10110 !
0"
0[
1\
0Y
0Z
#450000
1"
1Y
1Z
#460000
b10111 !
0"
1[
0Y
0Z
#470000
1"
1Y
1Z
#480000
b11111 !
b11011 !
b11001 !
b11000 !
0"
0[
0\
0]
1^
0Y
0Z
#490000
1"
1Y
1Z
#500000
b11001 !
0"
1[
0Y
0Z
#510000
1"
1Y
1Z
#520000
b11011 !
b11010 !
0"
0[
1\
0Y
0Z
#530000
1"
1Y
1Z
#540000
b11011 !
0"
1[
0Y
0Z
#550000
1"
1Y
1Z
#560000
b11111 !
b11101 !
b11100 !
0"
0[
0\
1]
0Y
0Z
#570000
1"
1Y
1Z
#580000
b11101 !
0"
1[
0Y
0Z
#590000
1"
1Y
1Z
#590001
1>!
1=!
1<!
1:!
19!
18!
16!
15!
14!
12!
11!
10!
1.!
1-!
1,!
1*!
1)!
1(!
1x
1w
1v
1t
1s
1r
1p
1o
1n
1l
1k
1j
1h
1g
1f
1d
1c
1b
1B
1C
1D
1F
1G
1H
1J
1K
1L
1N
1O
1P
1R
1S
1T
1V
1W
1X
1:
19
18
16
15
14
12
11
10
1.
1-
1,
1*
1)
1(
1&
1%
1$
#600000
b11111 !
b11110 !
0"
0[
1\
0Y
0Z
#610000
1"
1Y
1Z
#610001
0>!
0=!
0<!
0:!
09!
08!
06!
05!
04!
02!
01!
00!
0.!
0-!
0,!
0*!
0)!
0(!
0x
0w
0v
0t
0s
0r
0p
0o
0n
0l
0k
0j
0h
0g
0f
0d
0c
0b
0B
0C
0D
0F
0G
0H
0J
0K
0L
0N
0O
0P
0R
0S
0T
0V
0W
0X
0:
09
08
06
05
04
02
01
00
0.
0-
0,
0*
0)
0(
0&
0%
0$
#620000
b11111 !
0"
1[
0Y
0Z
#630000
1"
1Y
1Z
#640000
b111111 !
b101111 !
b100111 !
b100011 !
b100001 !
b100000 !
0"
0[
0\
0]
0^
0_
1`
0Y
0Z
#650000
1"
1Y
1Z
#660000
b100001 !
0"
1[
0Y
0Z
#670000
1"
1Y
1Z
#680000
b100011 !
b100010 !
0"
0[
1\
0Y
0Z
#690000
1"
1Y
1Z
#700000
b100011 !
0"
1[
0Y
0Z
#710000
1"
1Y
1Z
#720000
b100111 !
b100101 !
b100100 !
0"
0[
0\
1]
0Y
0Z
#730000
1"
1Y
1Z
#740000
b100101 !
0"
1[
0Y
0Z
#750000
1"
1Y
1Z
#760000
b100111 !
b100110 !
0"
0[
1\
0Y
0Z
#770000
1"
1Y
1Z
#780000
b100111 !
0"
1[
0Y
0Z
#790000
1"
1Y
1Z
#800000
b101111 !
b101011 !
b101001 !
b101000 !
0"
0[
0\
0]
1^
0Y
0Z
#810000
1"
1Y
1Z
#820000
b101001 !
0"
1[
0Y
0Z
#830000
1"
1Y
1Z
#840000
b101011 !
b101010 !
0"
0[
1\
0Y
0Z
#850000
1"
1Y
1Z
#860000
b101011 !
0"
1[
0Y
0Z
#870000
1"
1Y
1Z
#880000
b101111 !
b101101 !
b101100 !
0"
0[
0\
1]
0Y
0Z
#890000
1"
1Y
1Z
#900000
b101101 !
0"
1[
0Y
0Z
#910000
1"
1Y
1Z
#920000
b101111 !
b101110 !
0"
0[
1\
0Y
0Z
#930000
1"
1Y
1Z
#940000
b101111 !
0"
1[
0Y
0Z
#950000
1"
1Y
1Z
#960000
b111111 !
b110111 !
b110011 !
b110001 !
b110000 !
0"
0[
0\
0]
0^
1_
0Y
0Z
#970000
1"
1Y
1Z
#980000
b110001 !
0"
1[
0Y
0Z
#990000
1"
1Y
1Z
