reg/simulation/qsim/reg1021.msim.vcd
$comment
	File created using the following command:
		vcd file reg1021.msim.vcd -direction
$end
$date
	Wed Sep 11 15:53:44 2024
$end
$version
	ModelSim Version 10.5b
$end
$timescale
	1ps
$end

$scope module reg1021_vlg_vec_tst $end
$var reg 1 ! clk $end
$var reg 8 " D [7:0] $end
$var wire 1 # Q [7] $end
$var wire 1 $ Q [6] $end
$var wire 1 % Q [5] $end
$var wire 1 & Q [4] $end
$var wire 1 ' Q [3] $end
$var wire 1 ( Q [2] $end
$var wire 1 ) Q [1] $end
$var wire 1 * Q [0] $end

$scope module i1 $end
$var wire 1 + gnd $end
$var wire 1 , vcc $end
$var wire 1 - unknown $end
$var tri1 1 . devclrn $end
$var tri1 1 / devpor $end
$var tri1 1 0 devoe $end
$var wire 1 1 Q[7]~output_o $end
$var wire 1 2 Q[6]~output_o $end
$var wire 1 3 Q[5]~output_o $end
$var wire 1 4 Q[4]~output_o $end
$var wire 1 5 Q[3]~output_o $end
$var wire 1 6 Q[2]~output_o $end
$var wire 1 7 Q[1]~output_o $end
$var wire 1 8 Q[0]~output_o $end
$var wire 1 9 clk~input_o $end
$var wire 1 : clk~inputclkctrl_outclk $end
$var wire 1 ; D[7]~input_o $end
$var wire 1 < inst|12~q $end
$var wire 1 = D[6]~input_o $end
$var wire 1 > inst|13~feeder_combout $end
$var wire 1 ? inst|13~q $end
$var wire 1 @ D[5]~input_o $end
$var wire 1 A inst|14~q $end
$var wire 1 B D[4]~input_o $end
$var wire 1 C inst|15~q $end
$var wire 1 D D[3]~input_o $end
$var wire 1 E inst|16~feeder_combout $end
$var wire 1 F inst|16~q $end
$var wire 1 G D[2]~input_o $end
$var wire 1 H inst|17~feeder_combout $end
$var wire 1 I inst|17~q $end
$var wire 1 J D[1]~input_o $end
$var wire 1 K inst|18~feeder_combout $end
$var wire 1 L inst|18~q $end
$var wire 1 M D[0]~input_o $end
$var wire 1 N inst|19~feeder_combout $end
$var wire 1 O inst|19~q $end
$upscope $end
$upscope $end
$enddefinitions $end
#0
$dumpvars
0!
b0 "
0*
0)
0(
0'
0&
0%
0$
0#
0+
1,
x-
1.
1/
10
01
02
03
04
05
06
07
08
09
0:
0;
0<
0=
0>
0?
0@
0A
0B
0C
0D
0E
0F
0G
0H
0I
0J
0K
0L
0M
0N
0O
$end
#40000
b10000000 "
b11000000 "
b11100000 "
b11110000 "
b11111000 "
b11111100 "
b11111110 "
b11111111 "
1M
1J
1G
1D
1B
1@
1=
1;
1N
1K
1H
1E
1>
#50000
1!
19
1:
1O
1L
1I
1F
1C
1A
1?
1<
11
12
13
14
15
16
17
18
1*
1)
1(
1'
1&
1%
1$
1#
#60000
b1111111 "
b111111 "
b11111 "
b1111 "
b111 "
b11 "
b1 "
b0 "
0M
0J
0G
0D
0B
0@
0=
0;
0N
0K
0H
0E
0>
#100000
0!
09
0:
#140000
b10000000 "
b11000000 "
b11001000 "
b11001100 "
1G
1D
1=
1;
1H
1E
1>
#150000
1!
19
1:
0O
0L
0C
0A
03
04
07
08
0*
0)
0&
0%
#160000
b1001100 "
b1100 "
b100 "
b0 "
0G
0D
0=
0;
0H
0E
0>
#200000
0!
09
0:
#240000
b100000 "
b110000 "
b110010 "
b110011 "
1M
1J
1B
1@
1N
1K
#250000
1!
19
1:
1O
1L
0I
0F
1C
1A
0?
0<
01
02
13
14
05
06
17
18
1*
1)
0(
0'
1&
1%
0$
0#
#260000
b10011 "
b11 "
b1 "
b0 "
0M
0J
0B
0@
0N
0K
#300000
0!
09
0:
#340000
b10000000 "
b10001000 "
b10101000 "
b10101010 "
1J
1D
1@
1;
1K
1E
#350000
1!
19
1:
0O
1F
0C
1<
11
04
15
08
0*
1'
0&
1#
#360000
b101010 "
b100010 "
b10 "
b0 "
0J
0D
0@
0;
0K
0E
#400000
0!
09
0:
#440000
b1000000 "
b1000100 "
b1010100 "
b1010101 "
1M
1G
1B
1=
1N
1H
1>
#450000
1!
19
1:
1O
0L
1I
0F
1C
0A
1?
0<
01
12
03
14
05
16
07
18
1*
0)
1(
0'
1&
0%
1$
0#
#460000
b10101 "
b10001 "
b1 "
b0 "
0M
0G
0B
0=
0N
0H
0>
#500000
0!
09
0:
#540000
b1000 "
b1001000 "
b1001100 "
b1011100 "
1G
1D
1B
1=
1H
1E
1>
#550000
1!
19
1:
0O
1F
15
08
0*
1'
#560000
b1010100 "
b10100 "
b10000 "
b0 "
0G
0D
0B
0=
0H
0E
0>
#600000
0!
09
0:
#650000
1!
19
1:
0I
0F
0C
0?
02
04
05
06
0(
0'
0&
0$
#700000
0!
09
0:
#750000
1!
19
1:
#800000
0!
09
0:
#850000
1!
19
1:
#900000
0!
09
0:
#950000
1!
19
1:
