pc_ar1021/simulation/qsim/PC_AR1021.msim.vcd
$comment
	File created using the following command:
		vcd file PC_AR1021.msim.vcd -direction
$end
$date
	Wed Oct 16 14:41:31 2024
$end
$version
	ModelSim Version 10.5b
$end
$timescale
	1ps
$end

$scope module PC_AR1021_vlg_vec_tst $end
$var reg 1 ! CLR $end
$var reg 8 " D [7:0] $end
$var reg 1 # LOAD $end
$var reg 1 $ PC_B $end
$var reg 1 % T2 $end
$var reg 1 & T4 $end
$var wire 1 ' Q [7] $end
$var wire 1 ( Q [6] $end
$var wire 1 ) Q [5] $end
$var wire 1 * Q [4] $end
$var wire 1 + Q [3] $end
$var wire 1 , Q [2] $end
$var wire 1 - Q [1] $end
$var wire 1 . Q [0] $end

$scope module i1 $end
$var wire 1 / gnd $end
$var wire 1 0 vcc $end
$var wire 1 1 unknown $end
$var tri1 1 2 devclrn $end
$var tri1 1 3 devpor $end
$var tri1 1 4 devoe $end
$var wire 1 5 Q[7]~output_o $end
$var wire 1 6 Q[6]~output_o $end
$var wire 1 7 Q[5]~output_o $end
$var wire 1 8 Q[4]~output_o $end
$var wire 1 9 Q[3]~output_o $end
$var wire 1 : Q[2]~output_o $end
$var wire 1 ; Q[1]~output_o $end
$var wire 1 < Q[0]~output_o $end
$var wire 1 = T4~input_o $end
$var wire 1 > T4~inputclkctrl_outclk $end
$var wire 1 ? CLR~input_o $end
$var wire 1 @ LOAD~input_o $end
$var wire 1 A PC_B~input_o $end
$var wire 1 B inst1|$00000|auto_generated|result_node[7]~30_combout $end
$var wire 1 C D[7]~input_o $end
$var wire 1 D inst1|$00000|auto_generated|result_node[7]~14_combout $end
$var wire 1 E T2~input_o $end
$var wire 1 F T2~inputclkctrl_outclk $end
$var wire 1 G LOAD~inputclkctrl_outclk $end
$var wire 1 H inst|LPM_COUNTER_component|auto_generated|latch_signal[7]~8_combout $end
$var wire 1 I D[5]~input_o $end
$var wire 1 J inst|LPM_COUNTER_component|auto_generated|latch_signal[5]~10_combout $end
$var wire 1 K D[4]~input_o $end
$var wire 1 L inst|LPM_COUNTER_component|auto_generated|latch_signal[4]~11_combout $end
$var wire 1 M D[3]~input_o $end
$var wire 1 N inst|LPM_COUNTER_component|auto_generated|latch_signal[3]~12_combout $end
$var wire 1 O D[2]~input_o $end
$var wire 1 P inst|LPM_COUNTER_component|auto_generated|latch_signal[2]~13_combout $end
$var wire 1 Q D[1]~input_o $end
$var wire 1 R inst|LPM_COUNTER_component|auto_generated|latch_signal[1]~14_combout $end
$var wire 1 S D[0]~input_o $end
$var wire 1 T inst|LPM_COUNTER_component|auto_generated|latch_signal[0]~15_combout $end
$var wire 1 U inst|LPM_COUNTER_component|auto_generated|counter_comb_bita0~combout $end
$var wire 1 V inst|LPM_COUNTER_component|auto_generated|counter_reg_bit[0]~7_combout $end
$var wire 1 W inst|LPM_COUNTER_component|auto_generated|aclr_actual~0_combout $end
$var wire 1 X inst|LPM_COUNTER_component|auto_generated|counter_comb_bita0~COUT $end
$var wire 1 Y inst|LPM_COUNTER_component|auto_generated|counter_comb_bita1~combout $end
$var wire 1 Z inst|LPM_COUNTER_component|auto_generated|counter_reg_bit[1]~6_combout $end
$var wire 1 [ inst|LPM_COUNTER_component|auto_generated|counter_comb_bita1~COUT $end
$var wire 1 \ inst|LPM_COUNTER_component|auto_generated|counter_comb_bita2~combout $end
$var wire 1 ] inst|LPM_COUNTER_component|auto_generated|counter_reg_bit[2]~5_combout $end
$var wire 1 ^ inst|LPM_COUNTER_component|auto_generated|counter_comb_bita2~COUT $end
$var wire 1 _ inst|LPM_COUNTER_component|auto_generated|counter_comb_bita3~combout $end
$var wire 1 ` inst|LPM_COUNTER_component|auto_generated|counter_reg_bit[3]~4_combout $end
$var wire 1 a inst|LPM_COUNTER_component|auto_generated|counter_comb_bita3~COUT $end
$var wire 1 b inst|LPM_COUNTER_component|auto_generated|counter_comb_bita4~combout $end
$var wire 1 c inst|LPM_COUNTER_component|auto_generated|counter_reg_bit[4]~3_combout $end
$var wire 1 d inst|LPM_COUNTER_component|auto_generated|counter_comb_bita4~COUT $end
$var wire 1 e inst|LPM_COUNTER_component|auto_generated|counter_comb_bita5~combout $end
$var wire 1 f inst|LPM_COUNTER_component|auto_generated|counter_reg_bit[5]~2_combout $end
$var wire 1 g inst|LPM_COUNTER_component|auto_generated|counter_comb_bita5~COUT $end
$var wire 1 h inst|LPM_COUNTER_component|auto_generated|counter_comb_bita6~combout $end
$var wire 1 i D[6]~input_o $end
$var wire 1 j inst|LPM_COUNTER_component|auto_generated|latch_signal[6]~9_combout $end
$var wire 1 k inst|LPM_COUNTER_component|auto_generated|counter_reg_bit[6]~1_combout $end
$var wire 1 l inst|LPM_COUNTER_component|auto_generated|counter_comb_bita6~COUT $end
$var wire 1 m inst|LPM_COUNTER_component|auto_generated|counter_comb_bita7~combout $end
$var wire 1 n inst|LPM_COUNTER_component|auto_generated|counter_reg_bit[7]~0_combout $end
$var wire 1 o inst1|$00000|auto_generated|result_node[7]~15_combout $end
$var wire 1 p inst2|12~q $end
$var wire 1 q inst1|$00000|auto_generated|result_node[6]~16_combout $end
$var wire 1 r inst1|$00000|auto_generated|result_node[6]~17_combout $end
$var wire 1 s inst2|13~q $end
$var wire 1 t inst1|$00000|auto_generated|result_node[5]~18_combout $end
$var wire 1 u inst1|$00000|auto_generated|result_node[5]~19_combout $end
$var wire 1 v inst2|14~q $end
$var wire 1 w inst1|$00000|auto_generated|result_node[4]~20_combout $end
$var wire 1 x inst1|$00000|auto_generated|result_node[4]~21_combout $end
$var wire 1 y inst2|15~q $end
$var wire 1 z inst1|$00000|auto_generated|result_node[3]~22_combout $end
$var wire 1 { inst1|$00000|auto_generated|result_node[3]~23_combout $end
$var wire 1 | inst2|16~q $end
$var wire 1 } inst1|$00000|auto_generated|result_node[2]~24_combout $end
$var wire 1 ~ inst1|$00000|auto_generated|result_node[2]~25_combout $end
$var wire 1 !! inst2|17~q $end
$var wire 1 "! inst1|$00000|auto_generated|result_node[1]~26_combout $end
$var wire 1 #! inst1|$00000|auto_generated|result_node[1]~27_combout $end
$var wire 1 $! inst2|18~q $end
$var wire 1 %! inst1|$00000|auto_generated|result_node[0]~28_combout $end
$var wire 1 &! inst1|$00000|auto_generated|result_node[0]~29_combout $end
$var wire 1 '! inst2|19~q $end
$var wire 1 (! inst|LPM_COUNTER_component|auto_generated|counter_reg_bit [7] $end
$var wire 1 )! inst|LPM_COUNTER_component|auto_generated|counter_reg_bit [6] $end
$var wire 1 *! inst|LPM_COUNTER_component|auto_generated|counter_reg_bit [5] $end
$var wire 1 +! inst|LPM_COUNTER_component|auto_generated|counter_reg_bit [4] $end
$var wire 1 ,! inst|LPM_COUNTER_component|auto_generated|counter_reg_bit [3] $end
$var wire 1 -! inst|LPM_COUNTER_component|auto_generated|counter_reg_bit [2] $end
$var wire 1 .! inst|LPM_COUNTER_component|auto_generated|counter_reg_bit [1] $end
$var wire 1 /! inst|LPM_COUNTER_component|auto_generated|counter_reg_bit [0] $end
$var wire 1 0! inst|LPM_COUNTER_component|auto_generated|pre_hazard [7] $end
$var wire 1 1! inst|LPM_COUNTER_component|auto_generated|pre_hazard [6] $end
$var wire 1 2! inst|LPM_COUNTER_component|auto_generated|pre_hazard [5] $end
$var wire 1 3! inst|LPM_COUNTER_component|auto_generated|pre_hazard [4] $end
$var wire 1 4! inst|LPM_COUNTER_component|auto_generated|pre_hazard [3] $end
$var wire 1 5! inst|LPM_COUNTER_component|auto_generated|pre_hazard [2] $end
$var wire 1 6! inst|LPM_COUNTER_component|auto_generated|pre_hazard [1] $end
$var wire 1 7! inst|LPM_COUNTER_component|auto_generated|pre_hazard [0] $end
$upscope $end
$upscope $end
$enddefinitions $end
#0
$dumpvars
1!
b0 "
0#
0$
0%
1&
0.
0-
0,
0+
0*
0)
0(
0'
0/
10
x1
12
13
14
05
06
07
08
09
0:
0;
0<
1=
1>
1?
0@
0A
0B
0C
0D
0E
0F
0G
1H
0I
1J
0K
1L
0M
1N
0O
1P
0Q
1R
0S
1T
1U
1V
1W
0X
0Y
0Z
1[
0\
0]
0^
0_
0`
1a
0b
0c
0d
0e
0f
1g
0h
0i
1j
0k
0l
0m
0n
0o
0p
0q
0r
0s
0t
0u
0v
0w
0x
0y
0z
0{
0|
0}
0~
0!!
0"!
0#!
0$!
0%!
0&!
0'!
0/!
0.!
0-!
0,!
0+!
0*!
0)!
0(!
17!
16!
15!
14!
13!
12!
11!
10!
$end
#2500
0&
0=
0>
#5000
1%
1E
1F
#7500
1&
1=
1>
#10000
0!
0%
0?
0E
0F
0W
1B
#12500
0&
0=
0>
#15000
1%
1E
1F
1/!
07!
1X
0U
1&!
1Y
0V
1Z
#17500
1&
1=
1>
1'!
1<
1.
#20000
0%
0E
0F
#22500
0&
0=
0>
#25000
1%
1E
1F
1.!
0/!
06!
17!
1#!
0[
0Y
0X
1U
0&!
1\
1[
1Y
0Z
1V
0\
1]
1Z
0]
#27500
1&
1=
1>
0'!
1$!
1;
0<
0.
1-
#30000
0%
0E
0F
#32500
0&
0=
0>
#35000
1%
1E
1F
1/!
07!
1X
0U
1&!
0[
0Y
0V
1\
0Z
1]
#37500
1&
1=
1>
1'!
1<
1.
#40000
0%
0E
0F
#42500
0&
0=
0>
#45000
1%
1E
1F
1-!
0.!
0/!
05!
16!
17!
1~
0#!
1^
0\
1[
1Y
0X
1U
0&!
1_
0^
1\
0Y
0]
1Z
1V
0_
1`
1]
0Z
0`
#47500
1&
1=
1>
0'!
0$!
1!!
1:
0;
0<
0.
0-
1,
#50000
0%
0E
0F
#52500
0&
0=
0>
#55000
1%
1E
1F
1/!
07!
1X
0U
1&!
1Y
0V
1Z
#57500
1&
1=
1>
1'!
1<
1.
#60000
b100 "
b110 "
b111 "
1#
0%
1S
1Q
1O
1@
0E
1G
0F
1%!
0T
1"!
0R
1}
0P
1W
0B
17!
06!
15!
1V
1#!
0Z
0]
0X
1U
0[
0Y
0\
1[
1Y
1\
0V
1Z
1]
0\
0Z
0]
1]
0/!
0-!
07!
05!
1X
0U
1\
0[
0Y
1V
0]
1^
0\
1Z
1_
1]
1`
#62500
0&
0=
0>
#65000
1%
1E
1F
#67500
1&
1=
1>
1$!
1;
1-
#70000
b1111 "
1$
b1101 "
b1100 "
0#
0%
0S
0Q
1M
1A
0@
0E
0G
0F
0%!
0"!
1z
0W
0&!
0#!
1{
#72500
0&
0=
0>
#75000
1%
1E
1F
1,!
1-!
1.!
1/!
04!
15!
16!
17!
0a
0_
0^
1\
1[
1Y
0X
1U
1b
1a
1_
0\
0Y
0`
0]
0Z
0V
0b
1c
1`
1]
1Z
0c
#77500
1&
1=
1>
0'!
0$!
1|
19
0;
0<
0.
0-
1+
#80000
b1000 "
b0 "
0$
0%
0O
0M
0A
0E
0F
0}
0z
1B
0~
#82500
0&
0=
0>
#85000
1%
1E
1F
0/!
07!
1X
0U
1&!
1Y
1V
0Z
#87500
1&
1=
1>
1'!
0!!
0:
1<
1.
0,
#90000
0%
0E
0F
#92500
0&
0=
0>
#95000
1%
1E
1F
0.!
1/!
06!
17!
1#!
0[
0Y
0X
1U
0&!
1\
1[
1Y
1Z
0V
0\
0]
0Z
1]
#97500
1&
1=
1>
0'!
1$!
1;
0<
0.
1-
#100000
0%
0E
0F
#102500
0&
0=
0>
#105000
1%
1E
1F
0/!
07!
1X
0U
1&!
0[
0Y
1V
1\
1Z
0]
#107500
1&
1=
1>
1'!
1<
1.
#110000
0%
0E
0F
#112500
0&
0=
0>
#115000
1%
1E
1F
0-!
1.!
1/!
05!
16!
17!
1~
0#!
1^
0\
1[
1Y
0X
1U
0&!
0a
0_
0^
1\
0Y
1]
0Z
0V
1b
1a
1_
0`
0]
1Z
0b
1c
1`
0c
#117500
1&
1=
1>
0'!
0$!
1!!
1:
0;
0<
0.
0-
1,
#120000
0%
0E
0F
#122500
0&
0=
0>
#125000
1%
1E
1F
0/!
07!
1X
0U
1&!
1Y
1V
0Z
#127500
1&
1=
1>
1'!
1<
1.
#130000
0%
0E
0F
#132500
0&
0=
0>
#135000
1%
1E
1F
0.!
1/!
06!
17!
1#!
0[
0Y
0X
1U
0&!
1^
0\
1[
1Y
1Z
0V
0a
0_
0^
1\
1]
0Z
1b
1a
1_
0`
0]
0b
1c
1`
0c
#137500
1&
1=
1>
0'!
1$!
1;
0<
0.
1-
#140000
0%
0E
0F
#142500
0&
0=
0>
#145000
1%
1E
1F
0/!
07!
1X
0U
1&!
0[
0Y
1V
1^
0\
1Z
0a
0_
1]
1b
0`
1c
#147500
1&
1=
1>
1'!
1<
1.
#150000
0%
0E
0F
#152500
0&
0=
0>
#155000
1%
1E
1F
1+!
0,!
1-!
1.!
1/!
03!
14!
15!
16!
17!
1x
0{
0~
0#!
1d
0b
1a
1_
0^
1\
1[
1Y
0X
1U
0&!
1e
0d
1b
0_
0\
0Y
0c
1`
0]
0Z
0V
0e
1f
1c
0`
1]
1Z
0f
#157500
1&
1=
1>
0'!
0$!
0!!
0|
1y
18
09
0:
0;
0<
0.
0-
0,
0+
1*
#160000
0%
0E
0F
#162500
0&
0=
0>
#165000
1%
1E
1F
0/!
07!
1X
0U
1&!
1Y
1V
0Z
#167500
1&
1=
1>
1'!
1<
1.
#170000
0%
0E
0F
#172500
0&
0=
0>
#175000
1%
1E
1F
0.!
1/!
06!
17!
1#!
0[
0Y
0X
1U
0&!
1\
1[
1Y
1Z
0V
0\
0]
0Z
1]
#177500
1&
1=
1>
0'!
1$!
1;
0<
0.
1-
#180000
0%
0E
0F
#182500
0&
0=
0>
#185000
1%
1E
1F
0/!
07!
1X
0U
1&!
0[
0Y
1V
1\
1Z
0]
#187500
1&
1=
1>
1'!
1<
1.
#190000
0%
0E
0F
#192500
0&
0=
0>
#195000
1%
1E
1F
0-!
1.!
1/!
05!
16!
17!
1~
0#!
1^
0\
1[
1Y
0X
1U
0&!
1_
0^
1\
0Y
1]
0Z
0V
0_
1`
0]
1Z
0`
#197500
1&
1=
1>
0'!
0$!
1!!
1:
0;
0<
0.
0-
1,
#200000
0%
0E
0F
#202500
0&
0=
0>
#205000
1%
1E
1F
0/!
07!
1X
0U
1&!
1Y
1V
0Z
#207500
1&
1=
1>
1'!
1<
1.
#210000
0%
0E
0F
#212500
0&
0=
0>
#215000
1%
1E
1F
0.!
1/!
06!
17!
1#!
0[
0Y
0X
1U
0&!
1^
0\
1[
1Y
1Z
0V
1_
0^
1\
1]
0Z
0_
1`
0]
0`
#217500
1&
1=
1>
0'!
1$!
1;
0<
0.
1-
#220000
0%
0E
0F
#222500
0&
0=
0>
#225000
1%
1E
1F
0/!
07!
1X
0U
1&!
0[
0Y
1V
1^
0\
1Z
1_
1]
1`
#227500
1&
1=
1>
1'!
1<
1.
#230000
0%
0E
0F
#232500
0&
0=
0>
#235000
1%
1E
1F
1,!
1-!
1.!
1/!
04!
15!
16!
17!
1{
0~
0#!
0a
0_
0^
1\
1[
1Y
0X
1U
0&!
1d
0b
1a
1_
0\
0Y
0`
0]
0Z
0V
1e
0d
1b
0c
1`
1]
1Z
0e
1f
1c
0f
#237500
1&
1=
1>
0'!
0$!
0!!
1|
19
0:
0;
0<
0.
0-
0,
1+
#240000
0%
0E
0F
#242500
0&
0=
0>
#245000
1%
1E
1F
0/!
07!
1X
0U
1&!
1Y
1V
0Z
#247500
1&
1=
1>
1'!
1<
1.
#250000
0%
0E
0F
#252500
0&
0=
0>
#255000
1%
1E
1F
0.!
1/!
06!
17!
1#!
0[
0Y
0X
1U
0&!
1\
1[
1Y
1Z
0V
0\
0]
0Z
1]
#257500
1&
1=
1>
0'!
1$!
1;
0<
0.
1-
#260000
0%
0E
0F
#262500
0&
0=
0>
#265000
1%
1E
1F
0/!
07!
1X
0U
1&!
0[
0Y
1V
1\
1Z
0]
#267500
1&
1=
1>
1'!
1<
1.
#270000
0%
0E
0F
#272500
0&
0=
0>
#275000
1%
1E
1F
0-!
1.!
1/!
05!
16!
17!
1~
0#!
1^
0\
1[
1Y
0X
1U
0&!
0a
0_
0^
1\
0Y
1]
0Z
0V
1d
0b
1a
1_
0`
0]
1Z
1e
0d
1b
0c
1`
0e
1f
1c
0f
#277500
1&
1=
1>
0'!
0$!
1!!
1:
0;
0<
0.
0-
1,
#280000
0%
0E
0F
#282500
0&
0=
0>
#285000
1%
1E
1F
0/!
07!
1X
0U
1&!
1Y
1V
0Z
#287500
1&
1=
1>
1'!
1<
1.
#290000
0%
0E
0F
#292500
0&
0=
0>
#295000
1%
1E
1F
0.!
1/!
06!
17!
1#!
0[
0Y
0X
1U
0&!
1^
0\
1[
1Y
1Z
0V
0a
0_
0^
1\
1]
0Z
1d
0b
1a
1_
0`
0]
1e
0d
1b
0c
1`
0e
1f
1c
0f
#297500
1&
1=
1>
0'!
1$!
1;
0<
0.
1-
#300000
0%
0E
0F
#302500
0&
0=
0>
#305000
1%
1E
1F
0/!
07!
1X
0U
1&!
0[
0Y
1V
1^
0\
1Z
0a
0_
1]
1d
0b
0`
1e
0c
1f
#307500
1&
1=
1>
1'!
1<
1.
#310000
0%
0E
0F
#312500
0&
0=
0>
#315000
1%
1E
1F
1*!
0+!
0,!
1-!
1.!
1/!
02!
13!
14!
15!
16!
17!
1u
0x
0{
0~
0#!
0g
0e
0d
1b
1a
1_
0^
1\
1[
1Y
0X
1U
0&!
1h
1g
1e
0b
0_
0\
0Y
0f
1c
1`
0]
0Z
0V
0h
1k
1f
0c
0`
1]
1Z
0k
#317500
1&
1=
1>
0'!
0$!
0!!
0|
0y
1v
17
08
09
0:
0;
0<
0.
0-
0,
0+
0*
1)
#320000
0%
0E
0F
#322500
0&
0=
0>
#325000
1%
1E
1F
0/!
07!
1X
0U
1&!
1Y
1V
0Z
#327500
1&
1=
1>
1'!
1<
1.
#330000
0%
0E
0F
#332500
0&
0=
0>
#335000
1%
1E
1F
0.!
1/!
06!
17!
1#!
0[
0Y
0X
1U
0&!
1\
1[
1Y
1Z
0V
0\
0]
0Z
1]
#337500
1&
1=
1>
0'!
1$!
1;
0<
0.
1-
#340000
0%
0E
0F
#342500
0&
0=
0>
#345000
1%
1E
1F
0/!
07!
1X
0U
1&!
0[
0Y
1V
1\
1Z
0]
#347500
1&
1=
1>
1'!
1<
1.
#350000
0%
0E
0F
#352500
0&
0=
0>
#355000
1%
1E
1F
0-!
1.!
1/!
05!
16!
17!
1~
0#!
1^
0\
1[
1Y
0X
1U
0&!
1_
0^
1\
0Y
1]
0Z
0V
0_
1`
0]
1Z
0`
#357500
1&
1=
1>
0'!
0$!
1!!
1:
0;
0<
0.
0-
1,
#360000
0%
0E
0F
#362500
0&
0=
0>
#365000
1%
1E
1F
0/!
07!
1X
0U
1&!
1Y
1V
0Z
#367500
1&
1=
1>
1'!
1<
1.
#370000
0%
0E
0F
#372500
0&
0=
0>
#375000
1%
1E
1F
0.!
1/!
06!
17!
1#!
0[
0Y
0X
1U
0&!
1^
0\
1[
1Y
1Z
0V
1_
0^
1\
1]
0Z
0_
1`
0]
0`
#377500
1&
1=
1>
0'!
1$!
1;
0<
0.
1-
#380000
0%
0E
0F
#382500
0&
0=
0>
#385000
1%
1E
1F
0/!
07!
1X
0U
1&!
0[
0Y
1V
1^
0\
1Z
1_
1]
1`
#387500
1&
1=
1>
1'!
1<
1.
#390000
0%
0E
0F
#392500
0&
0=
0>
#395000
1%
1E
1F
1,!
1-!
1.!
1/!
04!
15!
16!
17!
1{
0~
0#!
0a
0_
0^
1\
1[
1Y
0X
1U
0&!
1b
1a
1_
0\
0Y
0`
0]
0Z
0V
0b
1c
1`
1]
1Z
0c
#397500
1&
1=
1>
0'!
0$!
0!!
1|
19
0:
0;
0<
0.
0-
0,
1+
#400000
0%
0E
0F
#402500
0&
0=
0>
#405000
1%
1E
1F
0/!
07!
1X
0U
1&!
1Y
1V
0Z
#407500
1&
1=
1>
1'!
1<
1.
#410000
0%
0E
0F
#412500
0&
0=
0>
#415000
1%
1E
1F
0.!
1/!
06!
17!
1#!
0[
0Y
0X
1U
0&!
1\
1[
1Y
1Z
0V
0\
0]
0Z
1]
#417500
1&
1=
1>
0'!
1$!
1;
0<
0.
1-
#420000
0%
0E
0F
#422500
0&
0=
0>
#425000
1%
1E
1F
0/!
07!
1X
0U
1&!
0[
0Y
1V
1\
1Z
0]
#427500
1&
1=
1>
1'!
1<
1.
#430000
0%
0E
0F
#432500
0&
0=
0>
#435000
1%
1E
1F
0-!
1.!
1/!
05!
16!
17!
1~
0#!
1^
0\
1[
1Y
0X
1U
0&!
0a
0_
0^
1\
0Y
1]
0Z
0V
1b
1a
1_
0`
0]
1Z
0b
1c
1`
0c
#437500
1&
1=
1>
0'!
0$!
1!!
1:
0;
0<
0.
0-
1,
#440000
0%
0E
0F
#442500
0&
0=
0>
#445000
1%
1E
1F
0/!
07!
1X
0U
1&!
1Y
1V
0Z
#447500
1&
1=
1>
1'!
1<
1.
#450000
0%
0E
0F
#452500
0&
0=
0>
#455000
1%
1E
1F
0.!
1/!
06!
17!
1#!
0[
0Y
0X
1U
0&!
1^
0\
1[
1Y
1Z
0V
0a
0_
0^
1\
1]
0Z
1b
1a
1_
0`
0]
0b
1c
1`
0c
#457500
1&
1=
1>
0'!
1$!
1;
0<
0.
1-
#460000
0%
0E
0F
#462500
0&
0=
0>
#465000
1%
1E
1F
0/!
07!
1X
0U
1&!
0[
0Y
1V
1^
0\
1Z
0a
0_
1]
1b
0`
1c
#467500
1&
1=
1>
1'!
1<
1.
#470000
0%
0E
0F
#472500
0&
0=
0>
#475000
1%
1E
1F
1+!
0,!
1-!
1.!
1/!
03!
14!
15!
16!
17!
1x
0{
0~
0#!
1d
0b
1a
1_
0^
1\
1[
1Y
0X
1U
0&!
0g
0e
0d
1b
0_
0\
0Y
0c
1`
0]
0Z
0V
1h
1g
1e
0f
1c
0`
1]
1Z
0h
1k
1f
0k
#477500
1&
1=
1>
0'!
0$!
0!!
0|
1y
18
09
0:
0;
0<
0.
0-
0,
0+
1*
#480000
0%
0E
0F
#482500
0&
0=
0>
#485000
1%
1E
1F
0/!
07!
1X
0U
1&!
1Y
1V
0Z
#487500
1&
1=
1>
1'!
1<
1.
#490000
0%
0E
0F
#492500
0&
0=
0>
#495000
1%
1E
1F
0.!
1/!
06!
17!
1#!
0[
0Y
0X
1U
0&!
1\
1[
1Y
1Z
0V
0\
0]
0Z
1]
#497500
1&
1=
1>
0'!
1$!
1;
0<
0.
1-
#500000
0%
0E
0F
#502500
0&
0=
0>
#505000
1%
1E
1F
0/!
07!
1X
0U
1&!
0[
0Y
1V
1\
1Z
0]
#507500
1&
1=
1>
1'!
1<
1.
#510000
0%
0E
0F
#512500
0&
0=
0>
#515000
1%
1E
1F
0-!
1.!
1/!
05!
16!
17!
1~
0#!
1^
0\
1[
1Y
0X
1U
0&!
1_
0^
1\
0Y
1]
0Z
0V
0_
1`
0]
1Z
0`
#517500
1&
1=
1>
0'!
0$!
1!!
1:
0;
0<
0.
0-
1,
#520000
0%
0E
0F
#522500
0&
0=
0>
#525000
1%
1E
1F
0/!
07!
1X
0U
1&!
1Y
1V
0Z
#527500
1&
1=
1>
1'!
1<
1.
#530000
0%
0E
0F
#532500
0&
0=
0>
#535000
1%
1E
1F
0.!
1/!
06!
17!
1#!
0[
0Y
0X
1U
0&!
1^
0\
1[
1Y
1Z
0V
1_
0^
1\
1]
0Z
0_
1`
0]
0`
#537500
1&
1=
1>
0'!
1$!
1;
0<
0.
1-
#540000
0%
0E
0F
#542500
0&
0=
0>
#545000
1%
1E
1F
0/!
07!
1X
0U
1&!
0[
0Y
1V
1^
0\
1Z
1_
1]
1`
#547500
1&
1=
1>
1'!
1<
1.
#550000
0%
0E
0F
#552500
0&
0=
0>
#555000
1%
1E
1F
1,!
1-!
1.!
1/!
04!
15!
16!
17!
1{
0~
0#!
0a
0_
0^
1\
1[
1Y
0X
1U
0&!
1d
0b
1a
1_
0\
0Y
0`
0]
0Z
0V
0g
0e
0d
1b
0c
1`
1]
1Z
1h
1g
1e
0f
1c
0h
1k
1f
0k
#557500
1&
1=
1>
0'!
0$!
0!!
1|
19
0:
0;
0<
0.
0-
0,
1+
#560000
0%
0E
0F
#562500
0&
0=
0>
#565000
1%
1E
1F
0/!
07!
1X
0U
1&!
1Y
1V
0Z
#567500
1&
1=
1>
1'!
1<
1.
#570000
0%
0E
0F
#572500
0&
0=
0>
#575000
1%
1E
1F
0.!
1/!
06!
17!
1#!
0[
0Y
0X
1U
0&!
1\
1[
1Y
1Z
0V
0\
0]
0Z
1]
#577500
1&
1=
1>
0'!
1$!
1;
0<
0.
1-
#580000
0%
0E
0F
#582500
0&
0=
0>
#585000
1%
1E
1F
0/!
07!
1X
0U
1&!
0[
0Y
1V
1\
1Z
0]
#587500
1&
1=
1>
1'!
1<
1.
#590000
0%
0E
0F
#592500
0&
0=
0>
#595000
1%
1E
1F
0-!
1.!
1/!
05!
16!
17!
1~
0#!
1^
0\
1[
1Y
0X
1U
0&!
0a
0_
0^
1\
0Y
1]
0Z
0V
1d
0b
1a
1_
0`
0]
1Z
0g
0e
0d
1b
0c
1`
1h
1g
1e
0f
1c
0h
1k
1f
0k
#597500
1&
1=
1>
0'!
0$!
1!!
1:
0;
0<
0.
0-
1,
#600000
0%
0E
0F
#602500
0&
0=
0>
#605000
1%
1E
1F
0/!
07!
1X
0U
1&!
1Y
1V
0Z
#607500
1&
1=
1>
1'!
1<
1.
#610000
0%
0E
0F
#612500
0&
0=
0>
#615000
1%
1E
1F
0.!
1/!
06!
17!
1#!
0[
0Y
0X
1U
0&!
1^
0\
1[
1Y
1Z
0V
0a
0_
0^
1\
1]
0Z
1d
0b
1a
1_
0`
0]
0g
0e
0d
1b
0c
1`
1h
1g
1e
0f
1c
0h
1k
1f
0k
#617500
1&
1=
1>
0'!
1$!
1;
0<
0.
1-
#620000
0%
0E
0F
#622500
0&
0=
0>
#625000
1%
1E
1F
0/!
07!
1X
0U
1&!
0[
0Y
1V
1^
0\
1Z
0a
0_
1]
1d
0b
0`
0g
0e
0c
1h
0f
1k
#627500
1&
1=
1>
1'!
1<
1.
#630000
0%
0E
0F
#632500
0&
0=
0>
#635000
1%
1E
1F
1)!
0*!
0+!
0,!
1-!
1.!
1/!
01!
12!
13!
14!
15!
16!
17!
1r
0u
0x
0{
0~
0#!
1l
0h
1g
1e
0d
1b
1a
1_
0^
1\
1[
1Y
0X
1U
0&!
1m
0l
1h
0e
0b
0_
0\
0Y
0k
1f
1c
1`
0]
0Z
0V
0m
1n
1k
0f
0c
0`
1]
1Z
0n
#637500
1&
1=
1>
0'!
0$!
0!!
0|
0y
0v
1s
16
07
08
09
0:
0;
0<
0.
0-
0,
0+
0*
0)
1(
#640000
0%
0E
0F
#642500
0&
0=
0>
#645000
1%
1E
1F
0/!
07!
1X
0U
1&!
1Y
1V
0Z
#647500
1&
1=
1>
1'!
1<
1.
#650000
0%
0E
0F
#652500
0&
0=
0>
#655000
1%
1E
1F
0.!
1/!
06!
17!
1#!
0[
0Y
0X
1U
0&!
1\
1[
1Y
1Z
0V
0\
0]
0Z
1]
#657500
1&
1=
1>
0'!
1$!
1;
0<
0.
1-
#660000
0%
0E
0F
#662500
0&
0=
0>
#665000
1%
1E
1F
0/!
07!
1X
0U
1&!
0[
0Y
1V
1\
1Z
0]
#667500
1&
1=
1>
1'!
1<
1.
#670000
0%
0E
0F
#672500
0&
0=
0>
#675000
1%
1E
1F
0-!
1.!
1/!
05!
16!
17!
1~
0#!
1^
0\
1[
1Y
0X
1U
0&!
1_
0^
1\
0Y
1]
0Z
0V
0_
1`
0]
1Z
0`
#677500
1&
1=
1>
0'!
0$!
1!!
1:
0;
0<
0.
0-
1,
#680000
0%
0E
0F
#682500
0&
0=
0>
#685000
1%
1E
1F
0/!
07!
1X
0U
1&!
1Y
1V
0Z
#687500
1&
1=
1>
1'!
1<
1.
#690000
0%
0E
0F
#692500
0&
0=
0>
#695000
1%
1E
1F
0.!
1/!
06!
17!
1#!
0[
0Y
0X
1U
0&!
1^
0\
1[
1Y
1Z
0V
1_
0^
1\
1]
0Z
0_
1`
0]
0`
#697500
1&
1=
1>
0'!
1$!
1;
0<
0.
1-
#700000
0%
0E
0F
#702500
0&
0=
0>
#705000
1%
1E
1F
0/!
07!
1X
0U
1&!
0[
0Y
1V
1^
0\
1Z
1_
1]
1`
#707500
1&
1=
1>
1'!
1<
1.
#710000
0%
0E
0F
#712500
0&
0=
0>
#715000
1%
1E
1F
1,!
1-!
1.!
1/!
04!
15!
16!
17!
1{
0~
0#!
0a
0_
0^
1\
1[
1Y
0X
1U
0&!
1b
1a
1_
0\
0Y
0`
0]
0Z
0V
0b
1c
1`
1]
1Z
0c
#717500
1&
1=
1>
0'!
0$!
0!!
1|
19
0:
0;
0<
0.
0-
0,
1+
#720000
0%
0E
0F
#722500
0&
0=
0>
#725000
1%
1E
1F
0/!
07!
1X
0U
1&!
1Y
1V
0Z
#727500
1&
1=
1>
1'!
1<
1.
#730000
0%
0E
0F
#732500
0&
0=
0>
#735000
1%
1E
1F
0.!
1/!
06!
17!
1#!
0[
0Y
0X
1U
0&!
1\
1[
1Y
1Z
0V
0\
0]
0Z
1]
#737500
1&
1=
1>
0'!
1$!
1;
0<
0.
1-
#740000
0%
0E
0F
#742500
0&
0=
0>
#745000
1%
1E
1F
0/!
07!
1X
0U
1&!
0[
0Y
1V
1\
1Z
0]
#747500
1&
1=
1>
1'!
1<
1.
#750000
0%
0E
0F
#752500
0&
0=
0>
