timing/simulation/qsim/timing1021.msim.vcd
$comment
	File created using the following command:
		vcd file timing1021.msim.vcd -direction
$end
$date
	Wed Oct 16 14:03:25 2024
$end
$version
	ModelSim Version 10.5b
$end
$timescale
	1ps
$end

$scope module timing1021_vlg_vec_tst $end
$var reg 1 ! CLK1 $end
$var reg 1 " RST1 $end
$var reg 1 # S0 $end
$var wire 1 $ T1 $end
$var wire 1 % T2 $end
$var wire 1 & T3 $end
$var wire 1 ' T4 $end

$scope module i1 $end
$var wire 1 ( gnd $end
$var wire 1 ) vcc $end
$var wire 1 * unknown $end
$var tri1 1 + devclrn $end
$var tri1 1 , devpor $end
$var tri1 1 - devoe $end
$var wire 1 . T1~output_o $end
$var wire 1 / T4~output_o $end
$var wire 1 0 T3~output_o $end
$var wire 1 1 T2~output_o $end
$var wire 1 2 S0~input_o $end
$var wire 1 3 inst1~feeder_combout $end
$var wire 1 4 RST1~input_o $end
$var wire 1 5 RST1~inputclkctrl_outclk $end
$var wire 1 6 inst1~q $end
$var wire 1 7 inst2~feeder_combout $end
$var wire 1 8 inst2~q $end
$var wire 1 9 inst3~feeder_combout $end
$var wire 1 : inst3~q $end
$var wire 1 ; inst4~q $end
$var wire 1 < CLK1~input_o $end
$var wire 1 = inst13~combout $end
$var wire 1 > inst13~clkctrl_outclk $end
$var wire 1 ? inst9|5~0_combout $end
$var wire 1 @ inst9|5~1_combout $end
$var wire 1 A inst~q $end
$upscope $end
$upscope $end
$enddefinitions $end
#0
$dumpvars
0!
0"
1#
0$
0%
0&
0'
0(
1)
x*
1+
1,
1-
0.
0/
00
01
12
03
04
05
06
07
08
09
0:
0;
0<
0=
0>
1?
1@
0A
$end
#5000
1!
1<
1=
1>
#10000
0!
0<
0=
0>
#10500
1"
14
15
#15000
1!
1<
1=
1>
1A
1.
0?
1$
13
0@
#20000
0!
0<
0=
0>
#25000
1!
1<
1=
1>
0A
16
11
0.
1?
0$
1%
03
17
#30000
0!
0<
0=
0>
#35000
1!
1<
1=
1>
18
06
01
10
0?
1&
0%
19
1@
07
0@
#40000
0!
0<
0=
0>
#45000
1!
1<
1=
1>
1:
08
00
1/
1?
1'
0&
09
1@
#50000
0!
0<
0=
0>
#55000
1!
1<
1=
1>
1;
1A
0:
0/
1.
0?
1$
0'
13
0@
#60000
0!
0<
0=
0>
#65000
1!
1<
1=
1>
0;
0A
16
11
0.
1?
0$
1%
03
17
#70000
0!
0<
0=
0>
#75000
1!
1<
1=
1>
18
06
01
10
0?
1&
0%
19
1@
07
0@
#80000
0!
0<
0=
0>
#85000
1!
1<
1=
1>
1:
08
00
1/
1?
1'
0&
09
1@
#90000
0!
0<
0=
0>
#95000
1!
1<
1=
1>
1;
1A
0:
0/
1.
0?
1$
0'
13
0@
#100000
0!
0<
0=
0>
#105000
1!
1<
1=
1>
0;
0A
16
11
0.
1?
0$
1%
03
17
#110000
0#
0!
02
0<
0=
0>
#115000
1!
1<
1=
1>
18
06
01
10
0?
1&
0%
19
1@
07
0@
#120000
0!
0<
0=
0>
#125000
1#
1!
12
1<
1=
1>
1:
08
00
1/
1?
1'
0&
09
1@
#130000
0!
0<
0=
0>
#135000
1!
1<
1=
1>
1;
1A
0:
0/
1.
0?
1$
0'
13
0@
#140000
0!
0<
0=
0>
#145000
1!
1<
1=
1>
0;
0A
16
11
0.
1?
0$
1%
03
17
#150000
0"
0!
04
0<
05
0=
0>
06
01
0%
1@
07
#155000
1!
1<
1=
1>
#160000
0!
0<
0=
0>
#160500
1"
14
15
#165000
1!
1<
1=
1>
1A
1.
0?
1$
13
0@
#170000
0!
0<
0=
0>
#175000
1!
1<
1=
1>
0A
16
11
0.
1?
0$
1%
03
17
#180000
0!
0<
0=
0>
#185000
1!
1<
1=
1>
18
06
01
10
0?
1&
0%
19
1@
07
0@
#190000
0!
0<
0=
0>
#195000
1!
1<
1=
1>
1:
08
00
1/
1?
1'
0&
09
1@
#200000
0!
0<
0=
0>
#205000
1!
1<
1=
1>
1;
1A
0:
0/
1.
0?
1$
0'
13
0@
#210000
0!
0<
0=
0>
#215000
1!
1<
1=
1>
0;
0A
16
11
0.
1?
0$
1%
03
17
#220000
0!
0<
0=
0>
#225000
1!
1<
1=
1>
18
06
01
10
0?
1&
0%
19
1@
07
0@
#230000
0!
0<
0=
0>
#235000
1!
1<
1=
1>
1:
08
00
1/
1?
1'
0&
09
1@
#240000
0!
0<
0=
0>
#245000
1!
1<
1=
1>
1;
1A
0:
0/
1.
0?
1$
0'
13
0@
#250000
0#
0!
02
0<
#255000
1!
1<
#260000
0!
0<
#265000
1!
1<
#270000
0!
0<
#275000
1!
1<
#280000
0!
0<
#285000
1!
1<
#290000
0!
0<
#295000
1!
1<
#300000
0"
0!
04
0<
05
0;
0A
0.
0=
1?
0$
0>
03
1@
#305000
1!
1<
1=
1>
#310000
0!
0<
0=
0>
#310500
1"
14
15
#315000
1!
1<
1=
1>
1A
1.
0?
1$
13
0@
#320000
0!
0<
0=
0>
#325000
1!
1<
1=
1>
0A
16
11
0.
1?
0$
1%
03
17
#330000
0!
0<
0=
0>
#335000
1!
1<
1=
1>
18
06
01
10
0?
1&
0%
19
1@
07
0@
#340000
0!
0<
0=
0>
#345000
1!
1<
1=
1>
1:
08
00
1/
1'
0&
09
#350000
0!
0<
0=
0>
#355000
1!
1<
1=
1>
1;
0:
0/
1?
0'
1@
#360000
0!
0<
#365000
1!
1<
#370000
0!
0<
#375000
1#
1!
12
1<
#380000
0!
0<
0=
0>
#385000
1!
1<
1=
1>
0;
1A
1.
0?
1$
13
0@
#390000
0!
0<
0=
0>
#395000
1!
1<
1=
1>
0A
16
11
0.
1?
0$
1%
03
17
#400000
0!
0<
0=
0>
#405000
1!
1<
1=
1>
18
06
01
10
0?
1&
0%
19
1@
07
0@
#410000
0!
0<
0=
0>
#415000
1!
1<
1=
1>
1:
08
00
1/
1?
1'
0&
09
1@
#420000
0!
0<
0=
0>
#425000
1!
1<
1=
1>
1;
1A
0:
0/
1.
0?
1$
0'
13
0@
#430000
0!
0<
0=
0>
#435000
1!
1<
1=
1>
0;
0A
16
11
0.
1?
0$
1%
03
17
#440000
0!
0<
0=
0>
#445000
1!
1<
1=
1>
18
06
01
10
0?
1&
0%
19
1@
07
0@
#450000
0"
0!
04
0<
05
0=
0>
08
00
1?
0&
09
1@
#455000
1!
1<
1=
1>
#460000
0!
0<
0=
0>
#460500
1"
14
15
#465000
1!
1<
1=
1>
1A
1.
0?
1$
13
0@
#470000
0!
0<
0=
0>
#475000
1!
1<
1=
1>
0A
16
11
0.
1?
0$
1%
03
17
#480000
0!
0<
0=
0>
#485000
1!
1<
1=
1>
18
06
01
10
0?
1&
0%
19
1@
07
0@
#490000
0!
0<
0=
0>
#495000
1!
1<
1=
1>
1:
08
00
1/
1?
1'
0&
09
1@
#500000
0#
0!
02
0<
0?
0=
0>
0@
#505000
1!
1<
1=
1>
1;
0:
0/
1?
0'
1@
#510000
0!
0<
#515000
1!
1<
#520000
0!
0<
#525000
1!
1<
#530000
0!
0<
#535000
1!
1<
#540000
0!
0<
#545000
1!
1<
#550000
0!
0<
#555000
1!
1<
#560000
0!
0<
#565000
1!
1<
#570000
0!
0<
#575000
1!
1<
#580000
0!
0<
#585000
1!
1<
#590000
0!
0<
#595000
1!
1<
#600000
0"
0!
04
0<
05
0;
0=
0>
#605000
1!
1<
1=
1>
#610000
0!
0<
0=
0>
#610500
1"
14
15
#615000
1!
1<
1=
1>
1A
1.
0?
1$
13
0@
#620000
0!
0<
0=
0>
#625000
1#
1!
12
1<
1=
1>
0A
16
11
0.
1?
0$
1%
03
17
#630000
0!
0<
0=
0>
#635000
1!
1<
1=
1>
18
06
01
10
0?
1&
0%
19
1@
07
0@
#640000
0!
0<
0=
0>
#645000
1!
1<
1=
1>
1:
08
00
1/
1?
1'
0&
09
1@
#650000
0!
0<
0=
0>
#655000
1!
1<
1=
1>
1;
1A
0:
0/
1.
0?
1$
0'
13
0@
#660000
0!
0<
0=
0>
#665000
1!
1<
1=
1>
0;
0A
16
11
0.
1?
0$
1%
03
17
#670000
0!
0<
0=
0>
#675000
1!
1<
1=
1>
18
06
01
10
0?
1&
0%
19
1@
07
0@
#680000
0!
0<
0=
0>
#685000
1!
1<
1=
1>
1:
08
00
1/
1?
1'
0&
09
1@
#690000
0!
0<
0=
0>
#695000
1!
1<
1=
1>
1;
1A
0:
0/
1.
0?
1$
0'
13
0@
#700000
0!
0<
0=
0>
#705000
1!
1<
1=
1>
0;
0A
16
11
0.
1?
0$
1%
03
17
#710000
0!
0<
0=
0>
#715000
1!
1<
1=
1>
18
06
01
10
0?
1&
0%
19
1@
07
0@
#720000
0!
0<
0=
0>
#725000
1!
1<
1=
1>
1:
08
00
1/
1?
1'
0&
09
1@
#730000
0!
0<
0=
0>
#735000
1!
1<
1=
1>
1;
1A
0:
0/
1.
0?
1$
0'
13
0@
#740000
0!
0<
0=
0>
#745000
1!
1<
1=
1>
0;
0A
16
11
0.
1?
0$
1%
03
17
#750000
0"
0#
0!
04
02
0<
05
0=
0>
06
01
0%
1@
07
#755000
1!
1<
1=
1>
#760000
0!
0<
0=
0>
#760500
1"
14
15
#765000
1!
1<
1=
1>
1A
1.
0?
1$
13
0@
#770000
0!
0<
0=
0>
#775000
1!
1<
1=
1>
0A
16
11
0.
1?
0$
1%
03
17
#780000
0!
0<
0=
0>
#785000
1!
1<
1=
1>
18
06
01
10
0?
1&
0%
19
1@
07
0@
#790000
0!
0<
0=
0>
#795000
1!
1<
1=
1>
1:
08
00
1/
1'
0&
09
#800000
0!
0<
0=
0>
#805000
1!
1<
1=
1>
1;
0:
0/
1?
0'
1@
#810000
0!
0<
#815000
1!
1<
#820000
0!
0<
#825000
1!
1<
#830000
0!
0<
#835000
1!
1<
#840000
0!
0<
#845000
1!
1<
#850000
0!
0<
#855000
1!
1<
#860000
0!
0<
#865000
1!
1<
#870000
0!
0<
#875000
1#
1!
12
1<
#880000
0!
0<
0=
0>
#885000
1!
1<
1=
1>
0;
1A
1.
0?
1$
13
0@
#890000
0!
0<
0=
0>
#895000
1!
1<
1=
1>
0A
16
11
0.
1?
0$
1%
03
17
#900000
0"
0!
04
0<
05
0=
0>
06
01
0%
1@
07
#905000
1!
1<
1=
1>
#910000
0!
0<
0=
0>
#910500
1"
14
15
#915000
1!
1<
1=
1>
1A
1.
0?
1$
13
0@
#920000
0!
0<
0=
0>
#925000
1!
1<
1=
1>
0A
16
11
0.
1?
0$
1%
03
17
#930000
0!
0<
0=
0>
#935000
1!
1<
1=
1>
18
06
01
10
0?
1&
0%
19
1@
07
0@
#940000
0!
0<
0=
0>
#945000
1!
1<
1=
1>
1:
08
00
1/
1?
1'
0&
09
1@
#950000
0!
0<
0=
0>
#955000
1!
1<
1=
1>
1;
1A
0:
0/
1.
0?
1$
0'
13
0@
#960000
0!
0<
0=
0>
#965000
1!
1<
1=
1>
0;
0A
16
11
0.
1?
0$
1%
03
17
#970000
0!
0<
0=
0>
#975000
1!
1<
1=
1>
18
06
01
10
0?
1&
0%
19
1@
07
0@
#980000
0!
0<
0=
0>
#985000
1!
1<
1=
1>
1:
08
00
1/
1?
1'
0&
09
1@
#990000
0!
0<
0=
0>
#995000
1!
1<
1=
1>
1;
1A
0:
0/
1.
0?
1$
0'
13
0@
