ram/simulation/qsim/ram1021.msim.vcd
$comment
	File created using the following command:
		vcd file ram1021.msim.vcd -direction
$end
$date
	Wed Sep 25 14:51:41 2024
$end
$version
	ModelSim Version 10.5b
$end
$timescale
	1ps
$end

$scope module ram1021_vlg_vec_tst $end
$var reg 8 ! address [7:0] $end
$var reg 1 " clock $end
$var reg 8 # data [7:0] $end
$var reg 1 $ we $end
$var wire 1 % q [7] $end
$var wire 1 & q [6] $end
$var wire 1 ' q [5] $end
$var wire 1 ( q [4] $end
$var wire 1 ) q [3] $end
$var wire 1 * q [2] $end
$var wire 1 + q [1] $end
$var wire 1 , q [0] $end

$scope module i1 $end
$var wire 1 - gnd $end
$var wire 1 . vcc $end
$var wire 1 / unknown $end
$var tri1 1 0 devclrn $end
$var tri1 1 1 devpor $end
$var tri1 1 2 devoe $end
$var wire 1 3 q[7]~output_o $end
$var wire 1 4 q[6]~output_o $end
$var wire 1 5 q[5]~output_o $end
$var wire 1 6 q[4]~output_o $end
$var wire 1 7 q[3]~output_o $end
$var wire 1 8 q[2]~output_o $end
$var wire 1 9 q[1]~output_o $end
$var wire 1 : q[0]~output_o $end
$var wire 1 ; we~input_o $end
$var wire 1 < clock~input_o $end
$var wire 1 = clock~inputclkctrl_outclk $end
$var wire 1 > data[0]~input_o $end
$var wire 1 ? address[0]~input_o $end
$var wire 1 @ address[1]~input_o $end
$var wire 1 A address[2]~input_o $end
$var wire 1 B address[3]~input_o $end
$var wire 1 C address[4]~input_o $end
$var wire 1 D address[5]~input_o $end
$var wire 1 E address[6]~input_o $end
$var wire 1 F address[7]~input_o $end
$var wire 1 G data[1]~input_o $end
$var wire 1 H data[2]~input_o $end
$var wire 1 I data[3]~input_o $end
$var wire 1 J data[4]~input_o $end
$var wire 1 K data[5]~input_o $end
$var wire 1 L data[6]~input_o $end
$var wire 1 M data[7]~input_o $end
$var wire 1 N inst|sram|ram_block|auto_generated|q_a [7] $end
$var wire 1 O inst|sram|ram_block|auto_generated|q_a [6] $end
$var wire 1 P inst|sram|ram_block|auto_generated|q_a [5] $end
$var wire 1 Q inst|sram|ram_block|auto_generated|q_a [4] $end
$var wire 1 R inst|sram|ram_block|auto_generated|q_a [3] $end
$var wire 1 S inst|sram|ram_block|auto_generated|q_a [2] $end
$var wire 1 T inst|sram|ram_block|auto_generated|q_a [1] $end
$var wire 1 U inst|sram|ram_block|auto_generated|q_a [0] $end
$var wire 1 V inst|sram|ram_block|auto_generated|ram_block1a0_PORTADATAOUT_bus [17] $end
$var wire 1 W inst|sram|ram_block|auto_generated|ram_block1a0_PORTADATAOUT_bus [16] $end
$var wire 1 X inst|sram|ram_block|auto_generated|ram_block1a0_PORTADATAOUT_bus [15] $end
$var wire 1 Y inst|sram|ram_block|auto_generated|ram_block1a0_PORTADATAOUT_bus [14] $end
$var wire 1 Z inst|sram|ram_block|auto_generated|ram_block1a0_PORTADATAOUT_bus [13] $end
$var wire 1 [ inst|sram|ram_block|auto_generated|ram_block1a0_PORTADATAOUT_bus [12] $end
$var wire 1 \ inst|sram|ram_block|auto_generated|ram_block1a0_PORTADATAOUT_bus [11] $end
$var wire 1 ] inst|sram|ram_block|auto_generated|ram_block1a0_PORTADATAOUT_bus [10] $end
$var wire 1 ^ inst|sram|ram_block|auto_generated|ram_block1a0_PORTADATAOUT_bus [9] $end
$var wire 1 _ inst|sram|ram_block|auto_generated|ram_block1a0_PORTADATAOUT_bus [8] $end
$var wire 1 ` inst|sram|ram_block|auto_generated|ram_block1a0_PORTADATAOUT_bus [7] $end
$var wire 1 a inst|sram|ram_block|auto_generated|ram_block1a0_PORTADATAOUT_bus [6] $end
$var wire 1 b inst|sram|ram_block|auto_generated|ram_block1a0_PORTADATAOUT_bus [5] $end
$var wire 1 c inst|sram|ram_block|auto_generated|ram_block1a0_PORTADATAOUT_bus [4] $end
$var wire 1 d inst|sram|ram_block|auto_generated|ram_block1a0_PORTADATAOUT_bus [3] $end
$var wire 1 e inst|sram|ram_block|auto_generated|ram_block1a0_PORTADATAOUT_bus [2] $end
$var wire 1 f inst|sram|ram_block|auto_generated|ram_block1a0_PORTADATAOUT_bus [1] $end
$var wire 1 g inst|sram|ram_block|auto_generated|ram_block1a0_PORTADATAOUT_bus [0] $end
$upscope $end
$upscope $end
$enddefinitions $end
#0
$dumpvars
b0 !
0"
b0 #
1$
0,
0+
0*
0)
0(
0'
0&
0%
0-
1.
x/
10
11
12
03
04
05
06
07
08
09
0:
1;
0<
0=
0>
0?
0@
0A
0B
0C
0D
0E
0F
0G
0H
0I
0J
0K
0L
0M
0U
0T
0S
0R
0Q
0P
0O
0N
0g
0f
0e
0d
0c
0b
0a
0`
0_
0^
0]
0\
0[
0Z
0Y
0X
0W
0V
$end
#5000
1"
1<
1=
#10000
b1 !
b1 #
0"
1>
1?
0<
0=
#15000
1"
1<
1=
#15001
1g
1U
1:
1,
#20000
b11 !
b11 #
b10 !
b10 #
0"
0>
1G
0?
1@
0<
0=
#25000
1"
1<
1=
#25001
0g
1f
0U
1T
19
0:
0,
1+
#30000
b11 !
b11 #
0"
1>
1?
0<
0=
#35000
1"
1<
1=
#35001
1g
1U
1:
1,
#40000
b111 !
b111 #
0$
b101 !
b101 #
b100 !
b100 #
0"
0>
0G
1H
0?
0@
1A
0;
0<
0=
#45000
1"
1<
1=
#45001
0g
0f
0U
0T
09
0:
0,
0+
#50000
b101 !
b101 #
0"
1>
1?
0<
0=
#55000
1"
1<
1=
#60000
b1 !
b111 #
b110 #
0"
0>
1G
0A
0<
0=
#65000
1"
1<
1=
#65001
1g
1U
1:
1,
#70000
b11 !
b10 !
b111 #
0"
1>
0?
1@
0<
0=
#75000
1"
1<
1=
#75001
0g
1f
0U
1T
19
0:
0,
1+
#80000
b1111 #
b1011 #
b1001 #
b11 !
b1000 #
0"
1?
0>
0G
0H
1I
0<
0=
#85000
1"
1<
1=
#85001
1g
1U
1:
1,
#90000
b111 !
b101 !
b100 !
b1001 #
0"
1>
0?
0@
1A
0<
0=
#95000
1"
1<
1=
#95001
0g
0f
0U
0T
09
0:
0,
0+
#100000
b1011 #
b101 !
b1010 #
0"
1?
0>
1G
0<
0=
#105000
1"
1<
1=
#110000
b1 !
b1011 #
0"
1>
0A
0<
0=
#115000
1"
1<
1=
#115001
1g
1U
1:
1,
#120000
b1111 #
b11 !
b1101 #
b10 !
b1100 #
0"
0?
1@
0>
0G
1H
0<
0=
#125000
1"
1<
1=
#125001
0g
1f
0U
1T
19
0:
0,
1+
#130000
b11 !
b1101 #
0"
1>
1?
0<
0=
#135000
1"
1<
1=
#135001
1g
1U
1:
1,
#140000
b111 !
b101 !
b1111 #
b100 !
b1110 #
0"
0>
1G
0?
0@
1A
0<
0=
#145000
1"
1<
1=
#145001
0g
0f
0U
0T
09
0:
0,
0+
#150000
b101 !
b1111 #
0"
1>
1?
0<
0=
#155000
1"
1<
1=
#160000
b11111 #
1$
b10111 #
b10011 #
b111 !
b10001 #
b110 !
b10000 #
0"
1;
0?
1@
0>
0G
0H
0I
1J
0<
0=
#165000
1"
1<
1=
#165001
1c
1Q
16
1(
#170000
b111 !
b10001 #
0"
1>
1?
0<
0=
#175000
1"
1<
1=
#175001
1g
1U
1:
1,
#180000
b1111 !
b1011 !
b1001 !
b10011 #
b1000 !
b10010 #
0"
0>
1G
0?
0@
0A
1B
0<
0=
#185000
1"
1<
1=
#185001
0g
1f
0U
1T
19
0:
0,
1+
#190000
b1001 !
b10011 #
0"
1>
1?
0<
0=
#195000
1"
1<
1=
#195001
1g
1U
1:
1,
#200000
0$
b10111 #
b1011 !
b10101 #
b1010 !
b10100 #
0"
0;
0?
1@
0>
0G
1H
0<
0=
#205000
1"
1<
1=
#205001
0g
0f
0c
0U
0T
0Q
06
09
0:
0,
0+
0(
#210000
b1011 !
b10101 #
0"
1>
1?
0<
0=
#215000
1"
1<
1=
#220000
b1111 !
b1101 !
b10111 #
b1100 !
b10110 #
0"
0>
1G
0?
0@
1A
0<
0=
#225000
1"
1<
1=
#230000
b1101 !
b10111 #
0"
1>
1?
0<
0=
#235000
1"
1<
1=
#240000
b11111 #
1$
b11011 #
b1111 !
b11001 #
b1110 !
b11000 #
0"
1;
0?
1@
0>
0G
0H
1I
0<
0=
#245000
1"
1<
1=
#245001
1d
1c
1R
1Q
16
17
1)
1(
#250000
b1111 !
b11001 #
0"
1>
1?
0<
0=
#255000
1"
1<
1=
#255001
1g
1U
1:
1,
#260000
b11111 !
b10111 !
b10011 !
b10001 !
b11011 #
b10000 !
b11010 #
0"
0>
1G
0?
0@
0A
0B
1C
0<
0=
#265000
1"
1<
1=
#265001
0g
1f
0U
1T
19
0:
0,
1+
#270000
b10001 !
b11011 #
0"
1>
1?
0<
0=
#275000
1"
1<
1=
#275001
1g
1U
1:
1,
#280000
0$
b11111 #
b10011 !
b11101 #
b10010 !
b11100 #
0"
0;
0?
1@
0>
0G
1H
0<
0=
#285000
1"
1<
1=
#285001
0g
0f
0d
0c
0U
0T
0R
0Q
06
07
09
0:
0,
0+
0)
0(
#290000
b10011 !
b11101 #
0"
1>
1?
0<
0=
#295000
1"
1<
1=
#300000
b10111 !
b10101 !
b11111 #
b10100 !
b11110 #
0"
0>
1G
0?
0@
1A
0<
0=
#305000
1"
1<
1=
#310000
b10101 !
b11111 #
0"
1>
1?
0<
0=
#315000
1"
1<
1=
#320000
b111111 #
b101111 #
b100111 #
1$
b100011 #
b10111 !
b100001 #
b10110 !
b100000 #
0"
1;
0?
1@
0>
0G
0H
0I
0J
1K
0<
0=
#325000
1"
1<
1=
#325001
1b
1P
15
1'
#330000
b10111 !
b100001 #
0"
1>
1?
0<
0=
#335000
1"
1<
1=
#335001
1g
1U
1:
1,
#340000
b11111 !
b11011 !
b11001 !
b100011 #
b11000 !
b100010 #
0"
0>
1G
0?
0@
0A
1B
0<
0=
#345000
1"
1<
1=
#345001
0g
1f
0U
1T
19
0:
0,
1+
#350000
b11001 !
b100011 #
0"
1>
1?
0<
0=
#355000
1"
1<
1=
#355001
1g
1U
1:
1,
#360000
0$
b100111 #
b11011 !
b100101 #
b11010 !
b100100 #
0"
0;
0?
1@
0>
0G
1H
0<
0=
#365000
1"
1<
1=
#365001
0g
0f
0b
0U
0T
0P
05
09
0:
0,
0+
0'
#370000
b11011 !
b100101 #
0"
1>
1?
0<
0=
#375000
1"
1<
1=
#380000
b11111 !
b11101 !
b100111 #
b11100 !
b100110 #
0"
0>
1G
0?
0@
1A
0<
0=
#385000
1"
1<
1=
#390000
b11101 !
b100111 #
0"
1>
1?
0<
0=
#395000
1"
1<
1=
#400000
b101111 #
1$
b101011 #
b11111 !
b101001 #
b11110 !
b101000 #
0"
1;
0?
1@
0>
0G
0H
1I
0<
0=
#405000
1"
1<
1=
#405001
1d
1b
1R
1P
15
17
1)
1'
#410000
b11111 !
b101001 #
0"
1>
1?
0<
0=
#415000
1"
1<
1=
#415001
1g
1U
1:
1,
#420000
b111111 !
b101111 !
b100111 !
b100011 !
b100001 !
b101011 #
b100000 !
b101010 #
0"
0>
1G
0?
0@
0A
0B
0C
1D
0<
0=
#425000
1"
1<
1=
#425001
0g
1f
0U
1T
19
0:
0,
1+
#430000
b100001 !
b101011 #
0"
1>
1?
0<
0=
#435000
1"
1<
1=
#435001
1g
1U
1:
1,
#440000
0$
b101111 #
b100011 !
b101101 #
b100010 !
b101100 #
0"
0;
0?
1@
0>
0G
1H
0<
0=
#445000
1"
1<
1=
#445001
0g
0f
0d
0b
0U
0T
0R
0P
05
07
09
0:
0,
0+
0)
0'
#450000
b100011 !
b101101 #
0"
1>
1?
0<
0=
#455000
1"
1<
1=
#460000
b100111 !
b100101 !
b101111 #
b100100 !
b101110 #
0"
0>
1G
0?
0@
1A
0<
0=
#465000
1"
1<
1=
#470000
b100101 !
b101111 #
0"
1>
1?
0<
0=
#475000
1"
1<
1=
#480000
b111111 #
b110111 #
1$
b110011 #
b100111 !
b110001 #
b100110 !
b110000 #
0"
1;
0?
1@
0>
0G
0H
0I
1J
0<
0=
#485000
1"
1<
1=
#485001
1c
1b
1Q
1P
15
16
1(
1'
#490000
b100111 !
b110001 #
0"
1>
1?
0<
0=
#495000
1"
1<
1=
#495001
1g
1U
1:
1,
#500000
b110111 !
b110011 !
b110011 #
b110010 !
b110010 #
0"
0>
1G
0?
0A
1C
0<
0=
#505000
1"
1<
1=
#505001
0g
1f
0U
1T
19
0:
0,
1+
#510000
b110011 !
b110011 #
0"
1>
1?
0<
0=
#515000
1"
1<
1=
#515001
1g
1U
1:
1,
#520000
0$
b110111 #
b110001 !
b110101 !
b110101 #
b110100 !
b110100 #
0"
0;
0?
0@
1A
0>
0G
1H
0<
0=
#525000
1"
1<
1=
#525001
0g
0f
0c
0b
0U
0T
0Q
0P
05
06
09
0:
0,
0+
0(
0'
#530000
b110101 !
b110101 #
0"
1>
1?
0<
0=
#535000
1"
1<
1=
#540000
b110111 !
b110111 #
b110110 !
b110110 #
0"
0>
1G
0?
1@
0<
0=
#545000
1"
1<
1=
#550000
b110111 !
b110111 #
0"
1>
1?
0<
0=
#555000
1"
1<
1=
#560000
b111111 !
b111111 #
1$
b111011 #
b111011 !
b111001 !
b111001 #
b111000 !
b111000 #
0"
0>
0G
0H
1I
0?
0@
0A
1B
1;
0<
0=
#565000
1"
1<
1=
#565001
1d
1c
1b
1R
1Q
1P
15
16
17
1)
1(
1'
#570000
b111001 !
b111001 #
0"
1>
1?
0<
0=
#575000
1"
1<
1=
#575001
1g
1U
1:
1,
#580000
b111011 !
b111011 #
b111010 !
b111010 #
0"
0>
1G
0?
1@
0<
0=
#585000
1"
1<
1=
#585001
0g
1f
0U
1T
19
0:
0,
1+
#590000
b111011 !
b111011 #
0"
1>
1?
0<
0=
#595000
1"
1<
1=
#595001
1g
1U
1:
1,
#600000
0$
b111111 #
b111111 !
b111101 !
b111101 #
b111100 !
b111100 #
0"
0;
0?
0@
1A
0>
0G
1H
0<
0=
#605000
1"
1<
1=
#605001
0g
0f
0d
0c
0b
0U
0T
0R
0Q
0P
05
06
07
09
0:
0,
0+
0)
0(
0'
#610000
b111101 !
b111101 #
0"
1>
1?
0<
0=
#615000
1"
1<
1=
#620000
b111111 !
b111111 #
b111110 !
b111110 #
0"
0>
1G
0?
1@
0<
0=
#625000
1"
1<
1=
#630000
b111111 !
b111111 #
0"
1>
1?
0<
0=
#635000
1"
1<
1=
#640000
b1111111 !
b1111111 #
b1011111 #
b1011111 !
b1001111 #
b1001111 !
b1000111 !
b1000111 #
1$
b1000011 #
b1000011 !
b1000001 !
b1000001 #
b1000000 !
b1000000 #
0"
0>
0G
0H
0I
0J
0K
1L
0?
0@
0A
0B
0C
0D
1E
1;
0<
0=
#645000
1"
1<
1=
#645001
1a
1O
14
1&
#650000
b1000001 !
b1000001 #
0"
1>
1?
0<
0=
#655000
1"
1<
1=
#655001
1g
1U
1:
1,
#660000
b1000011 !
b1000011 #
b1000010 !
b1000010 #
0"
0>
1G
0?
1@
0<
0=
#665000
1"
1<
1=
#665001
0g
1f
0U
1T
19
0:
0,
1+
#670000
b1000011 !
b1000011 #
0"
1>
1?
0<
0=
#675000
1"
1<
1=
#675001
1g
1U
1:
1,
#680000
0$
b1000111 #
b1000111 !
b1000101 !
b1000101 #
b1000100 !
b1000100 #
0"
0;
0?
0@
1A
0>
0G
1H
0<
0=
#685000
1"
1<
1=
#685001
0g
0f
0a
0U
0T
0O
04
09
0:
0,
0+
0&
#690000
b1000101 !
b1000101 #
0"
1>
1?
0<
0=
#695000
1"
1<
1=
#700000
b1000111 !
b1000111 #
b1000110 !
b1000110 #
0"
0>
1G
0?
1@
0<
0=
#705000
1"
1<
1=
#710000
b1000111 !
b1000111 #
0"
1>
1?
0<
0=
#715000
1"
1<
1=
#720000
b1001111 !
b1001111 #
1$
b1001011 #
b1001011 !
b1001001 !
b1001001 #
b1001000 !
b1001000 #
0"
0>
0G
0H
1I
0?
0@
0A
1B
1;
0<
0=
#725000
1"
1<
1=
#725001
1d
1a
1R
1O
14
17
1)
1&
#730000
b1001001 !
b1001001 #
0"
1>
1?
0<
0=
#735000
1"
1<
1=
#735001
1g
1U
1:
1,
#740000
b1001011 !
b1001011 #
b1001010 !
b1001010 #
0"
0>
1G
0?
1@
0<
0=
#745000
1"
1<
1=
#745001
0g
1f
0U
1T
19
0:
0,
1+
#750000
b1001011 !
b1001011 #
0"
1>
1?
0<
0=
#755000
1"
1<
1=
#755001
1g
1U
1:
1,
#760000
0$
b1001111 #
b1001111 !
b1001101 !
b1001101 #
b1001100 !
b1001100 #
0"
0;
0?
0@
1A
0>
0G
1H
0<
0=
#765000
1"
1<
1=
#765001
0g
0f
0d
0a
0U
0T
0R
0O
04
07
09
0:
0,
0+
0)
0&
#770000
b1001101 !
b1001101 #
0"
1>
1?
0<
0=
#775000
1"
1<
1=
#780000
b1001111 !
b1001111 #
b1001110 !
b1001110 #
0"
0>
1G
0?
1@
0<
0=
#785000
1"
1<
1=
#790000
b1001111 !
b1001111 #
0"
1>
1?
0<
0=
#795000
1"
1<
1=
#800000
b1011111 #
b1011111 !
b1010111 !
b1010111 #
1$
b1010011 #
b1010011 !
b1010001 !
b1010001 #
b1010000 !
b1010000 #
0"
0?
0@
0A
0B
1C
0>
0G
0H
0I
1J
1;
0<
0=
#805000
1"
1<
1=
#805001
1c
1a
1Q
1O
14
16
1(
1&
#810000
b1010001 !
b1010001 #
0"
1>
1?
0<
0=
#815000
1"
1<
1=
#815001
1g
1U
1:
1,
#820000
b1010011 !
b1010011 #
b1010010 !
b1010010 #
0"
0>
1G
0?
1@
0<
0=
#825000
1"
1<
1=
#825001
0g
1f
0U
1T
19
0:
0,
1+
#830000
b1010011 !
b1010011 #
0"
1>
1?
0<
0=
#835000
1"
1<
1=
#835001
1g
1U
1:
1,
#840000
0$
b1010111 #
b1010111 !
b1010101 !
b1010101 #
b1010100 !
b1010100 #
0"
0;
0?
0@
1A
0>
0G
1H
0<
0=
#845000
1"
1<
1=
#845001
0g
0f
0c
0a
0U
0T
0Q
0O
04
06
09
0:
0,
0+
0(
0&
#850000
b1010101 !
b1010101 #
0"
1>
1?
0<
0=
#855000
1"
1<
1=
#860000
b1010111 !
b1010111 #
b1010110 !
b1010110 #
0"
0>
1G
0?
1@
0<
0=
#865000
1"
1<
1=
#870000
b1010111 !
b1010111 #
0"
1>
1?
0<
0=
#875000
1"
1<
1=
#880000
b1011111 !
b1011111 #
1$
b1011011 #
b1011011 !
b1011001 !
b1011001 #
b1011000 !
b1011000 #
0"
0>
0G
0H
1I
0?
0@
0A
1B
1;
0<
0=
#885000
1"
1<
1=
#885001
1d
1c
1a
1R
1Q
1O
14
16
17
1)
1(
1&
#890000
b1011001 !
b1011001 #
0"
1>
1?
0<
0=
#895000
1"
1<
1=
#895001
1g
1U
1:
1,
#900000
b1011011 !
b1011011 #
b1011010 !
b1011010 #
0"
0>
1G
0?
1@
0<
0=
#905000
1"
1<
1=
#905001
0g
1f
0U
1T
19
0:
0,
1+
#910000
b1011011 !
b1011011 #
0"
1>
1?
0<
0=
#915000
1"
1<
1=
#915001
1g
1U
1:
1,
#920000
0$
b1011111 #
b1011111 !
b1011101 !
b1011101 #
b1011100 !
b1011100 #
0"
0;
0?
0@
1A
0>
0G
1H
0<
0=
#925000
1"
1<
1=
#925001
0g
0f
0d
0c
0a
0U
0T
0R
0Q
0O
04
06
07
09
0:
0,
0+
0)
0(
0&
#930000
b1011101 !
b1011101 #
0"
1>
1?
0<
0=
#935000
1"
1<
1=
#940000
b1011111 !
b1011111 #
b1011110 !
b1011110 #
0"
0>
1G
0?
1@
0<
0=
#945000
1"
1<
1=
#950000
b1011111 !
b1011111 #
0"
1>
1?
0<
0=
#955000
1"
1<
1=
#960000
b1111111 #
b1111111 !
b1101111 #
b1101111 !
b1100111 !
b1100111 #
1$
b1100011 #
b1100011 !
b1100001 !
b1100001 #
b1100000 !
b1100000 #
0"
0?
0@
0A
0B
0C
1D
0>
0G
0H
0I
0J
1K
1;
0<
0=
#965000
1"
1<
1=
#965001
1b
1a
1P
1O
14
15
1'
1&
#970000
b1100001 !
b1100001 #
0"
1>
1?
0<
0=
#975000
1"
1<
1=
#975001
1g
1U
1:
1,
#980000
b1100011 !
b1100011 #
b1100010 !
b1100010 #
0"
0>
1G
0?
1@
0<
0=
#985000
1"
1<
1=
#985001
0g
1f
0U
1T
19
0:
0,
1+
#990000
b1100011 !
b1100011 #
0"
1>
1?
0<
0=
#995000
1"
1<
1=
#995001
1g
1U
1:
1,
