alu/simulation/qsim/ALU1021.msim.vcd
$comment
	File created using the following command:
		vcd file ALU1021.msim.vcd -direction
$end
$date
	Wed Sep 25 14:58:37 2024
$end
$version
	ModelSim Version 10.5b
$end
$timescale
	1ps
$end

$scope module ALU1021_vlg_vec_tst $end
$var reg 8 ! A [7:0] $end
$var reg 8 " B [7:0] $end
$var reg 1 # CN $end
$var reg 1 $ M $end
$var reg 4 % S [3:0] $end
$var wire 1 & AEQB $end
$var wire 1 ' CN4 $end
$var wire 1 ( F [7] $end
$var wire 1 ) F [6] $end
$var wire 1 * F [5] $end
$var wire 1 + F [4] $end
$var wire 1 , F [3] $end
$var wire 1 - F [2] $end
$var wire 1 . F [1] $end
$var wire 1 / F [0] $end

$scope module i1 $end
$var wire 1 0 gnd $end
$var wire 1 1 vcc $end
$var wire 1 2 unknown $end
$var tri1 1 3 devclrn $end
$var tri1 1 4 devpor $end
$var tri1 1 5 devoe $end
$var wire 1 6 CN4~output_o $end
$var wire 1 7 AEQB~output_o $end
$var wire 1 8 F[7]~output_o $end
$var wire 1 9 F[6]~output_o $end
$var wire 1 : F[5]~output_o $end
$var wire 1 ; F[4]~output_o $end
$var wire 1 < F[3]~output_o $end
$var wire 1 = F[2]~output_o $end
$var wire 1 > F[1]~output_o $end
$var wire 1 ? F[0]~output_o $end
$var wire 1 @ S[3]~input_o $end
$var wire 1 A B[7]~input_o $end
$var wire 1 B A[7]~input_o $end
$var wire 1 C S[2]~input_o $end
$var wire 1 D inst|52~0_combout $end
$var wire 1 E A[6]~input_o $end
$var wire 1 F B[6]~input_o $end
$var wire 1 G S[0]~input_o $end
$var wire 1 H S[1]~input_o $end
$var wire 1 I inst|45~0_combout $end
$var wire 1 J inst|51~0_combout $end
$var wire 1 K inst|78~0_combout $end
$var wire 1 L B[5]~input_o $end
$var wire 1 M A[5]~input_o $end
$var wire 1 N inst|47~0_combout $end
$var wire 1 O B[4]~input_o $end
$var wire 1 P A[4]~input_o $end
$var wire 1 Q inst|46~0_combout $end
$var wire 1 R inst|44~0_combout $end
$var wire 1 S inst|43~0_combout $end
$var wire 1 T inst|78~1_combout $end
$var wire 1 U A[3]~input_o $end
$var wire 1 V B[3]~input_o $end
$var wire 1 W inst1|51~0_combout $end
$var wire 1 X B[0]~input_o $end
$var wire 1 Y A[0]~input_o $end
$var wire 1 Z inst1|46~0_combout $end
$var wire 1 [ B[1]~input_o $end
$var wire 1 \ A[1]~input_o $end
$var wire 1 ] inst1|47~0_combout $end
$var wire 1 ^ inst1|43~0_combout $end
$var wire 1 _ CN~input_o $end
$var wire 1 ` inst1|78~0_combout $end
$var wire 1 a inst1|44~0_combout $end
$var wire 1 b inst1|52~0_combout $end
$var wire 1 c B[2]~input_o $end
$var wire 1 d A[2]~input_o $end
$var wire 1 e inst1|48~0_combout $end
$var wire 1 f inst1|78~1_combout $end
$var wire 1 g inst1|45~0_combout $end
$var wire 1 h inst1|78~2_combout $end
$var wire 1 i inst|78~2_combout $end
$var wire 1 j inst|48~0_combout $end
$var wire 1 k inst|78~3_combout $end
$var wire 1 l M~input_o $end
$var wire 1 m inst|77~0_combout $end
$var wire 1 n inst|77~1_combout $end
$var wire 1 o inst|82~0_combout $end
$var wire 1 p inst|79~combout $end
$var wire 1 q inst|83~0_combout $end
$var wire 1 r inst|80~combout $end
$var wire 1 s inst1|78~3_combout $end
$var wire 1 t inst1|82~0_combout $end
$var wire 1 u inst1|79~combout $end
$var wire 1 v inst1|81~combout $end
$var wire 1 w inst1|77~0_combout $end
$var wire 1 x inst1|77~1_combout $end
$var wire 1 y inst1|80~0_combout $end
$var wire 1 z inst1|83~0_combout $end
$var wire 1 { inst8~combout $end
$var wire 1 | inst|81~combout $end
$upscope $end
$upscope $end
$enddefinitions $end
#0
$dumpvars
b1111011 !
b101 "
0#
0$
b0 %
0&
1'
0/
0.
1-
1,
1+
1*
1)
0(
00
11
x2
13
14
15
16
07
08
19
1:
1;
1<
1=
0>
0?
0@
0A
0B
0C
0D
1E
0F
0G
0H
1I
0J
1K
0L
1M
0N
0O
1P
0Q
1R
1S
0T
1U
0V
1W
1X
1Y
0Z
0[
1\
0]
1^
0_
0`
1a
0b
1c
0d
0e
0f
0g
1h
1i
0j
1k
0l
0m
0n
1o
1p
1q
0r
0s
1t
0u
1v
0w
1x
1y
0z
0{
0|
$end
#25000
1#
1_
0y
1u
1`
1?
0v
1s
1f
1/
1>
1z
1.
0t
0=
0z
0-
1{
17
1&
0{
07
0&
#50000
1$
0#
1l
0_
1y
1w
0u
1r
0p
1m
0`
1t
0o
09
1=
0;
0?
1v
1|
0q
0s
0f
0/
0+
1-
0)
0x
1n
18
0<
0:
0>
0.
0*
0,
1(
#75000
1#
1_
1`
1s
1f
#100000
0$
0#
0l
0_
0w
0r
1p
0m
0`
0t
1o
19
0=
1;
0|
1q
0s
0f
1+
0-
1)
1x
0n
08
1<
1:
1*
1,
0(
1t
1=
1-
#125000
1#
1_
0y
1u
1`
1?
0v
1s
1f
1/
1>
1z
1.
0t
0=
0z
0-
1{
17
1&
0{
07
0&
#150000
1$
0#
1l
0_
1y
1w
0u
1r
0p
1m
0`
1t
0o
09
1=
0;
0?
1v
1|
0q
0s
0f
0/
0+
1-
0)
0x
1n
18
0<
0:
0>
0.
0*
0,
1(
#175000
1#
1_
1`
1s
1f
#200000
b1 %
0$
0#
1G
0l
0_
1g
0w
0r
1p
0m
0`
0t
1o
19
0=
1;
0|
1q
0s
0f
1+
0-
1)
1t
1x
0n
08
1<
1=
1:
1w
0h
1*
1-
1,
0(
0t
0=
1r
0p
0i
0-
0x
0<
0;
1|
0q
1m
0+
0,
0o
09
0:
0*
0)
1n
18
1(
#225000
1#
1_
0y
1u
1`
1?
0v
1s
1f
1/
1>
0w
1h
1.
1t
1=
0r
1p
1i
1-
1x
1<
1;
0|
0m
1z
1+
1,
1o
19
1:
1q
1*
1)
0n
1{
17
08
0(
1&
#250000
1$
0#
1l
0_
1y
1w
0u
1r
0p
1m
0`
0t
0o
09
0=
0;
0?
0z
1v
1|
0q
0s
0f
0/
0+
0-
0)
0x
1n
18
0<
0:
0>
0h
0.
0*
0,
1(
0{
07
0i
0&
#275000
1#
1_
1`
1s
1f
1h
1i
#300000
0$
0#
0l
0_
0w
0r
1p
0m
0`
1t
1o
19
1=
1;
0|
1q
0s
0f
1+
1-
1)
1x
0n
08
1<
1:
1w
0h
1*
1,
0(
0t
0=
1r
0p
0i
0-
0x
0<
0;
1|
0q
1m
0+
0,
0o
09
0:
0*
0)
1n
18
1(
#325000
1#
1_
0y
1u
1`
1?
0v
1s
1f
1/
1>
0w
1h
1.
1t
1=
0r
1p
1i
1-
1x
1<
1;
0|
0m
1z
1+
1,
1o
19
1:
1q
1*
1)
0n
1{
17
08
0(
1&
#350000
1$
0#
1l
0_
1y
1w
0u
1r
0p
1m
0`
0t
0o
09
0=
0;
0?
0z
1v
1|
0q
0s
0f
0/
0+
0-
0)
0x
1n
18
0<
0:
0>
0h
0.
0*
0,
1(
0{
07
0i
0&
#375000
1#
1_
1`
1s
1f
1h
1i
#400000
b11 %
b10 %
0$
0#
0G
1H
0l
0_
0g
1J
0w
0r
1p
0m
0`
1t
1o
19
1=
1;
0K
0|
1q
0s
0f
1+
1-
1)
0t
1x
1<
0=
1:
1*
0-
1,
1{
1t
1=
17
1&
1-
#425000
1#
1_
0y
1u
1`
1?
0v
1s
1f
1/
1>
1z
1.
0t
0=
0z
0-
#450000
1$
0#
1l
0_
1y
1w
0u
1r
0p
1m
0`
1t
0o
09
1=
0;
0?
1v
1|
0q
0s
0f
0/
0+
1-
0)
0x
0{
0n
08
07
0<
0:
0>
0.
0*
0,
0&
0(
#475000
1#
1_
1`
1s
1f
#500000
0$
0#
0l
0_
0w
0r
1p
0m
0`
0t
1o
19
0=
1;
0|
1q
0s
0f
1+
0-
1)
1x
1n
18
1<
1:
1*
1,
1(
1{
1t
1=
17
1&
1-
#525000
1#
1_
0y
1u
1`
1?
0v
1s
1f
1/
1>
1z
1.
0t
0=
0z
0-
#550000
1$
0#
1l
0_
1y
1w
0u
1r
0p
1m
0`
1t
0o
09
1=
0;
0?
1v
1|
0q
0s
0f
0/
0+
1-
0)
0x
0{
0n
08
07
0<
0:
0>
0.
0*
0,
0&
0(
#575000
1#
1_
1`
1s
1f
#600000
b11 %
0$
0#
1G
0l
0_
1g
0w
0r
1p
0m
0`
0t
1o
19
0=
1;
0|
1q
0s
0f
1+
0-
1)
1t
1x
1n
18
1<
1=
1:
1w
0h
1*
1-
1,
1(
1{
0t
0=
17
1r
0p
0i
1&
0-
0x
0<
0;
1|
0q
1m
0+
0,
0{
0o
0k
06
09
07
0:
0*
0&
0)
0'
0n
08
0(
#625000
1#
1_
0y
1u
1`
1?
0v
1s
1f
1/
1>
0w
1h
1.
1t
1=
0r
1p
1i
1-
1x
1<
1;
0|
0m
1z
1+
1,
1o
1k
16
19
1:
1q
1*
1)
1'
1n
1{
17
18
1(
1&
#650000
1$
0#
1l
0_
1y
1w
0u
1r
0p
1m
0`
0t
0o
09
0=
0;
0?
0z
1v
1|
0q
0s
0f
0/
0+
0-
0)
0x
0n
08
0<
0:
0>
0h
0.
0*
0,
0(
0{
07
0i
0&
0k
06
0'
#675000
1#
1_
1`
1s
1f
1h
1i
1k
16
1'
#700000
0$
0#
0l
0_
0w
0r
1p
0m
0`
1t
1o
19
1=
1;
0|
1q
0s
0f
1+
1-
1)
1x
1n
18
1<
1:
1w
0h
1*
1,
1(
1{
0t
0=
17
1r
0p
0i
1&
0-
0x
0<
0;
1|
0q
1m
0+
0,
0{
0o
0k
06
09
07
0:
0*
0&
0)
0'
0n
08
0(
#725000
1#
1_
0y
1u
1`
1?
0v
1s
1f
1/
1>
0w
1h
1.
1t
1=
0r
1p
1i
1-
1x
1<
1;
0|
0m
1z
1+
1,
1o
1k
16
19
1:
1q
1*
1)
1'
1n
1{
17
18
1(
1&
#750000
1$
0#
1l
0_
1y
1w
0u
1r
0p
1m
0`
0t
0o
09
0=
0;
0?
0z
1v
1|
0q
0s
0f
0/
0+
0-
0)
0x
0n
08
0<
0:
0>
0h
0.
0*
0,
0(
0{
07
0i
0&
0k
06
0'
#775000
1#
1_
1`
1s
1f
1h
1i
1k
16
1'
#800000
b111 %
b101 %
b100 %
0$
0#
0G
0H
1C
0l
0_
0g
0J
1j
1b
1]
1Q
1N
0w
0r
1p
0m
0`
1t
1o
19
1=
1;
1K
1m
0f
0v
1r
0p
0i
0s
1+
1-
1)
0t
0o
0k
06
09
0=
0;
1>
0h
0|
1.
0+
0-
0)
0'
1k
1n
1o
1t
1=
19
18
16
1:
0r
1q
1*
1'
1(
1)
1-
1;
1+
1{
17
1&
#825000
1#
1_
0y
1u
1?
1v
1/
0>
0.
#850000
1$
0#
1l
0_
1y
1w
0u
0?
0v
0/
1x
1<
1>
1.
1,
#875000
1#
1_
#900000
0$
0#
0l
0_
0w
0x
0<
0,
#925000
1#
1_
0y
1u
1?
1v
1/
0>
0.
#950000
1$
0#
1l
0_
1y
1w
0u
0?
0v
0/
1x
1<
1>
1.
1,
#975000
1#
1_
#1000000
b101 %
0$
0#
1G
0l
0_
1g
0w
1w
0t
0x
0<
0=
0-
0,
1x
1<
1,
#1025000
1#
1_
0y
1u
1?
1v
1/
0>
0.
#1050000
1$
0#
1l
0_
1y
0u
0?
0v
0/
1>
1.
#1075000
1#
1_
#1100000
0$
0#
0l
0_
#1125000
1#
1_
0y
1u
1?
1v
1/
0>
0.
#1150000
1$
0#
1l
0_
1y
0u
0?
0v
0/
1>
1.
#1175000
1#
1_
#1200000
b111 %
b110 %
0$
0#
0G
1H
0l
0_
0g
1J
0w
0K
1t
0n
08
1=
1-
0(
0x
0k
0{
07
06
0<
0,
0'
0&
#1225000
1#
1_
0y
1u
1?
1v
1/
0>
0.
#1250000
1$
0#
1l
0_
1y
1w
0u
0?
0v
0/
1x
1<
1>
1.
1,
#1275000
1#
1_
#1300000
0$
0#
0l
0_
0w
0x
0<
0,
#1325000
1#
1_
0y
1u
1?
1v
1/
0>
0.
#1350000
1$
0#
1l
0_
1y
1w
0u
0?
0v
0/
1x
1<
1>
1.
1,
#1375000
1#
1_
#1400000
b111 %
0$
0#
1G
0l
0_
1g
0w
1w
0t
0x
0<
0=
0-
0,
1x
1<
1,
#1425000
1#
1_
0y
1u
1?
1v
1/
0>
0.
#1450000
1$
0#
1l
0_
1y
0u
0?
0v
0/
1>
1.
#1475000
1#
1_
#1500000
0$
0#
0l
0_
#1525000
1#
1_
0y
1u
1?
1v
1/
0>
0.
#1550000
1$
0#
1l
0_
1y
0u
0?
0v
0/
1>
1.
#1575000
1#
1_
#1600000
b1111 %
b1011 %
b1001 %
b1000 %
0$
0#
0G
0H
0C
1@
0l
0_
0g
0J
0j
0b
0]
1Z
0Q
0N
0w
1h
1K
1v
0y
1r
1|
0q
1t
1n
0o
0x
0<
09
18
1=
0:
0;
1?
0>
0r
1p
1i
0.
1/
0+
0*
1-
1(
0)
0,
1x
1k
16
1<
1;
0|
0m
1+
1,
1'
1o
19
1:
1q
1*
1)
0n
08
0(
#1625000
1#
1_
1y
0?
0/
#1650000
1$
0#
1l
0_
0y
1w
1r
0p
1m
0o
09
0;
1?
1|
0q
1/
0+
0)
0x
1n
18
0<
0:
0*
0,
1(
#1675000
1#
1_
#1700000
0$
0#
0l
0_
0w
0r
1p
0m
1o
19
1;
0|
1q
1+
1)
1x
0n
08
1<
1:
1*
1,
0(
#1725000
1#
1_
1y
0?
0/
#1750000
1$
0#
1l
0_
0y
1w
1r
0p
1m
0o
09
0;
1?
1|
0q
1/
0+
0)
0x
1n
18
0<
0:
0*
0,
1(
#1775000
1#
1_
#1800000
b1001 %
0$
0#
1G
0l
0_
1g
0w
0r
1p
0m
1o
19
1;
1w
0h
0|
1q
1+
1)
0t
1x
0n
08
1<
0=
1:
1r
0p
0i
1*
0-
1,
0(
0x
0<
0;
1|
0q
1m
0+
0,
0o
09
0:
0*
0)
1n
18
1(
#1825000
1#
1_
1y
0?
0/
#1850000
1$
0#
1l
0_
0y
1?
1/
#1875000
1#
1_
#1900000
0$
0#
0l
0_
#1925000
1#
1_
1y
0?
0/
#1950000
1$
0#
1l
0_
0y
1?
1/
#1975000
1#
1_
#2000000
b1011 %
b1010 %
0$
0#
0G
1H
0l
0_
0g
1J
0w
1h
0K
1t
0n
08
1=
0r
1p
1i
1-
0(
1x
0k
06
1<
1;
0|
0m
1+
1,
0'
1o
1k
16
19
1:
1q
1*
1)
1'
1n
18
1(
1{
17
1&
#2025000
1#
1_
1y
0?
0/
#2050000
1$
0#
1l
0_
0y
1w
1r
0p
1m
0o
09
0;
1?
1|
0q
1/
0+
0)
0x
0{
0n
08
07
0<
0:
0*
0,
0&
0(
#2075000
1#
1_
#2100000
0$
0#
0l
0_
0w
0r
1p
0m
1o
19
1;
0|
1q
1+
1)
1x
1n
18
1<
1:
1*
1,
1(
1{
17
1&
#2125000
1#
1_
1y
0?
0/
#2150000
1$
0#
1l
0_
0y
1w
1r
0p
1m
0o
09
0;
1?
1|
0q
1/
0+
0)
0x
0{
0n
08
07
0<
0:
0*
0,
0&
0(
#2175000
1#
1_
#2200000
b1011 %
0$
0#
1G
0l
0_
1g
0w
0r
1p
0m
1o
19
1;
1w
0h
0|
1q
1+
1)
0t
1x
1n
18
1<
0=
1:
1r
0p
0i
1*
0-
1,
1(
0x
1{
17
0<
0;
1|
0q
1m
0+
0,
1&
0{
0o
0k
06
09
07
0:
0*
0&
0)
0'
0n
08
0(
#2225000
1#
1_
1y
0?
0/
#2250000
1$
0#
1l
0_
0y
1?
1/
#2275000
1#
1_
#2300000
0$
0#
0l
0_
#2325000
1#
1_
1y
0?
0/
#2350000
1$
0#
1l
0_
0y
1?
1/
#2375000
1#
1_
#2400000
b1111 %
b1101 %
b1100 %
0$
0#
0G
0H
1C
0l
0_
0g
0J
1j
1b
1]
1Q
1N
0w
1K
0v
0r
0|
1t
1n
1o
1x
1<
19
18
1=
1:
1;
1>
1z
1q
1.
1+
1*
1-
1(
1)
1,
0x
1k
16
0<
0z
0,
1'
1{
17
1&
#2425000
1#
1_
1y
0?
0/
#2450000
1$
0#
1l
0_
0y
1w
1?
1/
1x
1<
1z
1,
#2475000
1#
1_
#2500000
0$
0#
0l
0_
0w
0x
0<
0z
0,
#2525000
1#
1_
1y
0?
0/
#2550000
1$
0#
1l
0_
0y
1w
1?
1/
1x
1<
1z
1,
#2575000
1#
1_
#2600000
b1101 %
0$
0#
1G
0l
0_
1g
0w
1w
0t
0x
0<
0=
0z
0-
0,
1x
1<
1,
#2625000
1#
1_
1y
0?
0/
#2650000
1$
0#
1l
0_
0y
1?
1/
#2675000
1#
1_
#2700000
0$
0#
0l
0_
#2725000
1#
1_
1y
0?
0/
#2750000
1$
0#
1l
0_
0y
1?
1/
#2775000
1#
1_
#2800000
b1111 %
b1110 %
0$
0#
0G
1H
0l
0_
0g
1J
0w
0K
1t
0n
08
1=
1z
1-
0(
0x
0k
0{
07
06
0<
0z
0,
0'
0&
1{
17
1&
0{
07
0&
#2825000
1#
1_
1y
0?
0/
#2850000
1$
0#
1l
0_
0y
1w
1?
1/
1x
1<
1z
1,
1{
17
1&
#2875000
1#
1_
#2900000
0$
0#
0l
0_
0w
0x
0<
0z
0,
0{
07
0&
#2925000
1#
1_
1y
0?
0/
#2950000
1$
0#
1l
0_
0y
1w
1?
1/
1x
1<
1z
1,
1{
17
1&
#2975000
1#
1_
#3000000
b1111 %
0$
0#
1G
0l
0_
1g
0w
1w
0t
0x
0<
0=
0z
0-
0,
1x
1<
1,
0{
07
0&
#3025000
1#
1_
1y
0?
0/
#3050000
1$
0#
1l
0_
0y
1?
1/
#3075000
1#
1_
#3100000
0$
0#
0l
0_
#3125000
1#
1_
1y
0?
0/
#3150000
1$
0#
1l
0_
0y
1?
1/
#3175000
1#
1_
#3200000
b111 %
b11 %
b1 %
b0 %
0$
0#
0G
0H
0C
0@
0l
0_
0g
0J
0j
0b
0]
0Z
0Q
0N
0w
1h
1K
1v
1y
1r
1|
0q
1t
1n
0o
0x
0<
09
18
1=
0:
0;
0?
0>
0r
1p
1i
0.
0/
0+
0*
1-
1(
0)
0,
1x
1k
16
1<
1;
0|
0m
1+
1,
1'
1o
19
1:
1q
1*
1)
0n
08
0(
#3225000
1#
1_
0y
1u
1`
1?
0v
1s
1f
1/
1>
1z
1.
0t
0=
0z
0-
1{
17
1&
0{
07
0&
#3250000
1$
0#
1l
0_
1y
1w
0u
1r
0p
1m
0`
1t
0o
09
1=
0;
0?
1v
1|
0q
0s
0f
0/
0+
1-
0)
0x
1n
18
0<
0:
0>
0.
0*
0,
1(
#3275000
1#
1_
1`
1s
1f
#3300000
0$
0#
0l
0_
0w
0r
1p
0m
0`
0t
1o
19
0=
1;
0|
1q
0s
0f
1+
0-
1)
1x
0n
08
1<
1:
1*
1,
0(
1t
1=
1-
#3325000
1#
1_
0y
1u
1`
1?
0v
1s
1f
1/
1>
1z
1.
0t
0=
0z
0-
1{
17
1&
0{
07
0&
#3350000
1$
0#
1l
0_
1y
1w
0u
1r
0p
1m
0`
1t
0o
09
1=
0;
0?
1v
1|
0q
0s
0f
0/
0+
1-
0)
0x
1n
18
0<
0:
0>
0.
0*
0,
1(
#3375000
1#
1_
1`
1s
1f
#3400000
b1 %
0$
0#
1G
0l
0_
1g
0w
0r
1p
0m
0`
0t
1o
19
0=
1;
0|
1q
0s
0f
1+
0-
1)
1t
1x
0n
08
1<
1=
1:
1w
0h
1*
1-
1,
0(
0t
0=
1r
0p
0i
0-
0x
0<
0;
1|
0q
1m
0+
0,
0o
09
0:
0*
0)
1n
18
1(
#3425000
1#
1_
0y
1u
1`
1?
0v
1s
1f
1/
1>
0w
1h
1.
1t
1=
0r
1p
1i
1-
1x
1<
1;
0|
0m
1z
1+
1,
1o
19
1:
1q
1*
1)
0n
1{
17
08
0(
1&
#3450000
1$
0#
1l
0_
1y
1w
0u
1r
0p
1m
0`
0t
0o
09
0=
0;
0?
0z
1v
1|
0q
0s
0f
0/
0+
0-
0)
0x
1n
18
0<
0:
0>
0h
0.
0*
0,
1(
0{
07
0i
0&
#3475000
1#
1_
1`
1s
1f
1h
1i
#3500000
0$
0#
0l
0_
0w
0r
1p
0m
0`
1t
1o
19
1=
1;
0|
1q
0s
0f
1+
1-
1)
1x
0n
08
1<
1:
1w
0h
1*
1,
0(
0t
0=
1r
0p
0i
0-
0x
0<
0;
1|
0q
1m
0+
0,
0o
09
0:
0*
0)
1n
18
1(
#3525000
1#
1_
0y
1u
1`
1?
0v
1s
1f
1/
1>
0w
1h
1.
1t
1=
0r
1p
1i
1-
1x
1<
1;
0|
0m
1z
1+
1,
1o
19
1:
1q
1*
1)
0n
1{
17
08
0(
1&
#3550000
1$
0#
1l
0_
1y
1w
0u
1r
0p
1m
0`
0t
0o
09
0=
0;
0?
0z
1v
1|
0q
0s
0f
0/
0+
0-
0)
0x
1n
18
0<
0:
0>
0h
0.
0*
0,
1(
0{
07
0i
0&
#3575000
1#
1_
1`
1s
1f
1h
1i
#3600000
b11 %
b10 %
0$
0#
0G
1H
0l
0_
0g
1J
0w
0r
1p
0m
0`
1t
1o
19
1=
1;
0K
0|
1q
0s
0f
1+
1-
1)
0t
1x
1<
0=
1:
1*
0-
1,
1{
1t
1=
17
1&
1-
#3625000
1#
1_
0y
1u
1`
1?
0v
1s
1f
1/
1>
1z
1.
0t
0=
0z
0-
#3650000
1$
0#
1l
0_
1y
1w
0u
1r
0p
1m
0`
1t
0o
09
1=
0;
0?
1v
1|
0q
0s
0f
0/
0+
1-
0)
0x
0{
0n
08
07
0<
0:
0>
0.
0*
0,
0&
0(
#3675000
1#
1_
1`
1s
1f
#3700000
0$
0#
0l
0_
0w
0r
1p
0m
0`
0t
1o
19
0=
1;
0|
1q
0s
0f
1+
0-
1)
1x
1n
18
1<
1:
1*
1,
1(
1{
1t
1=
17
1&
1-
#3725000
1#
1_
0y
1u
1`
1?
0v
1s
1f
1/
1>
1z
1.
0t
0=
0z
0-
#3750000
1$
0#
1l
0_
1y
1w
0u
1r
0p
1m
0`
1t
0o
09
1=
0;
0?
1v
1|
0q
0s
0f
0/
0+
1-
0)
0x
0{
0n
08
07
0<
0:
0>
0.
0*
0,
0&
0(
#3775000
1#
1_
1`
1s
1f
#3800000
b11 %
0$
0#
1G
0l
0_
1g
0w
0r
1p
0m
0`
0t
1o
19
0=
1;
0|
1q
0s
0f
1+
0-
1)
1t
1x
1n
18
1<
1=
1:
1w
0h
1*
1-
1,
1(
1{
0t
0=
17
1r
0p
0i
1&
0-
0x
0<
0;
1|
0q
1m
0+
0,
0{
0o
0k
06
09
07
0:
0*
0&
0)
0'
0n
08
0(
#3825000
1#
1_
0y
1u
1`
1?
0v
1s
1f
1/
1>
0w
1h
1.
1t
1=
0r
1p
1i
1-
1x
1<
1;
0|
0m
1z
1+
1,
1o
1k
16
19
1:
1q
1*
1)
1'
1n
1{
17
18
1(
1&
#3850000
1$
0#
1l
0_
1y
1w
0u
1r
0p
1m
0`
0t
0o
09
0=
0;
0?
0z
1v
1|
0q
0s
0f
0/
0+
0-
0)
0x
0n
08
0<
0:
0>
0h
0.
0*
0,
0(
0{
07
0i
0&
0k
06
0'
#3875000
1#
1_
1`
1s
1f
1h
1i
1k
16
1'
#3900000
0$
0#
0l
0_
0w
0r
1p
0m
0`
1t
1o
19
1=
1;
0|
1q
0s
0f
1+
1-
1)
1x
1n
18
1<
1:
1w
0h
1*
1,
1(
1{
0t
0=
17
1r
0p
0i
1&
0-
0x
0<
0;
1|
0q
1m
0+
0,
0{
0o
0k
06
09
07
0:
0*
0&
0)
0'
0n
08
0(
#3925000
1#
1_
0y
1u
1`
1?
0v
1s
1f
1/
1>
0w
1h
1.
1t
1=
0r
1p
1i
1-
1x
1<
1;
0|
0m
1z
1+
1,
1o
1k
16
19
1:
1q
1*
1)
1'
1n
1{
17
18
1(
1&
#3950000
1$
0#
1l
0_
1y
1w
0u
1r
0p
1m
0`
0t
0o
09
0=
0;
0?
0z
1v
1|
0q
0s
0f
0/
0+
0-
0)
0x
0n
08
0<
0:
0>
0h
0.
0*
0,
0(
0{
07
0i
0&
0k
06
0'
#3975000
1#
1_
1`
1s
1f
1h
1i
1k
16
1'
#4000000
b111 %
b101 %
b100 %
0$
0#
0G
0H
1C
0l
0_
0g
0J
1j
1b
1]
1Q
1N
0w
0r
1p
0m
0`
1t
1o
19
1=
1;
1K
1m
0f
0v
1r
0p
0i
0s
1+
1-
1)
0t
0o
0k
06
09
0=
0;
1>
0h
0|
1.
0+
0-
0)
0'
1k
1n
1o
1t
1=
19
18
16
1:
0r
1q
1*
1'
1(
1)
1-
1;
1+
1{
17
1&
#4025000
1#
1_
0y
1u
1?
1v
1/
0>
0.
#4050000
1$
0#
1l
0_
1y
1w
0u
0?
0v
0/
1x
1<
1>
1.
1,
#4075000
1#
1_
#4100000
0$
0#
0l
0_
0w
0x
0<
0,
#4125000
1#
1_
0y
1u
1?
1v
1/
0>
0.
#4150000
1$
0#
1l
0_
1y
1w
0u
0?
0v
0/
1x
1<
1>
1.
1,
#4175000
1#
1_
#4200000
b101 %
0$
0#
1G
0l
0_
1g
0w
1w
0t
0x
0<
0=
0-
0,
1x
1<
1,
#4225000
1#
1_
0y
1u
1?
1v
1/
0>
0.
#4250000
1$
0#
1l
0_
1y
0u
0?
0v
0/
1>
1.
#4275000
1#
1_
#4300000
0$
0#
0l
0_
#4325000
1#
1_
0y
1u
1?
1v
1/
0>
0.
#4350000
1$
0#
1l
0_
1y
0u
0?
0v
0/
1>
1.
#4375000
1#
1_
#4400000
b111 %
b110 %
0$
0#
0G
1H
0l
0_
0g
1J
0w
0K
1t
0n
08
1=
1-
0(
0x
0k
0{
07
06
0<
0,
0'
0&
#4425000
1#
1_
0y
1u
1?
1v
1/
0>
0.
#4450000
1$
0#
1l
0_
1y
1w
0u
0?
0v
0/
1x
1<
1>
1.
1,
#4475000
1#
1_
#4500000
0$
0#
0l
0_
0w
0x
0<
0,
#4525000
1#
1_
0y
1u
1?
1v
1/
0>
0.
#4550000
1$
0#
1l
0_
1y
1w
0u
0?
0v
0/
1x
1<
1>
1.
1,
#4575000
1#
1_
#4600000
b111 %
0$
0#
1G
0l
0_
1g
0w
1w
0t
0x
0<
0=
0-
0,
1x
1<
1,
#4625000
1#
1_
0y
1u
1?
1v
1/
0>
0.
#4650000
1$
0#
1l
0_
1y
0u
0?
0v
0/
1>
1.
#4675000
1#
1_
#4700000
0$
0#
0l
0_
#4725000
1#
1_
0y
1u
1?
1v
1/
0>
0.
#4750000
1$
0#
1l
0_
1y
0u
0?
0v
0/
1>
1.
#4775000
1#
1_
#4800000
b1111 %
b1011 %
b1001 %
b1000 %
0$
0#
0G
0H
0C
1@
0l
0_
0g
0J
0j
0b
0]
1Z
0Q
0N
0w
1h
1K
1v
0y
1r
1|
0q
1t
1n
0o
0x
0<
09
18
1=
0:
0;
1?
0>
0r
1p
1i
0.
1/
0+
0*
1-
1(
0)
0,
1x
1k
16
1<
1;
0|
0m
1+
1,
1'
1o
19
1:
1q
1*
1)
0n
08
0(
#4825000
1#
1_
1y
0?
0/
#4850000
1$
0#
1l
0_
0y
1w
1r
0p
1m
0o
09
0;
1?
1|
0q
1/
0+
0)
0x
1n
18
0<
0:
0*
0,
1(
#4875000
1#
1_
#4900000
0$
0#
0l
0_
0w
0r
1p
0m
1o
19
1;
0|
1q
1+
1)
1x
0n
08
1<
1:
1*
1,
0(
#4925000
1#
1_
1y
0?
0/
#4950000
1$
0#
1l
0_
0y
1w
1r
0p
1m
0o
09
0;
1?
1|
0q
1/
0+
0)
0x
1n
18
0<
0:
0*
0,
1(
#4975000
1#
1_
#5000000
b1001 %
0$
0#
1G
0l
0_
1g
0w
0r
1p
0m
1o
19
1;
1w
0h
0|
1q
1+
1)
0t
1x
0n
08
1<
0=
1:
1r
0p
0i
1*
0-
1,
0(
0x
0<
0;
1|
0q
1m
0+
0,
0o
09
0:
0*
0)
1n
18
1(
#5025000
1#
1_
1y
0?
0/
#5050000
1$
0#
1l
0_
0y
1?
1/
#5075000
1#
1_
#5100000
0$
0#
0l
0_
#5125000
1#
1_
1y
0?
0/
#5150000
1$
0#
1l
0_
0y
1?
1/
#5175000
1#
1_
#5200000
b1011 %
b1010 %
0$
0#
0G
1H
0l
0_
0g
1J
0w
1h
0K
1t
0n
08
1=
0r
1p
1i
1-
0(
1x
0k
06
1<
1;
0|
0m
1+
1,
0'
1o
1k
16
19
1:
1q
1*
1)
1'
1n
18
1(
1{
17
1&
#5225000
1#
1_
1y
0?
0/
#5250000
1$
0#
1l
0_
0y
1w
1r
0p
1m
0o
09
0;
1?
1|
0q
1/
0+
0)
0x
0{
0n
08
07
0<
0:
0*
0,
0&
0(
#5275000
1#
1_
#5300000
0$
0#
0l
0_
0w
0r
1p
0m
1o
19
1;
0|
1q
1+
1)
1x
1n
18
1<
1:
1*
1,
1(
1{
17
1&
#5325000
1#
1_
1y
0?
0/
#5350000
1$
0#
1l
0_
0y
1w
1r
0p
1m
0o
09
0;
1?
1|
0q
1/
0+
0)
0x
0{
0n
08
07
0<
0:
0*
0,
0&
0(
#5375000
1#
1_
#5400000
b1011 %
0$
0#
1G
0l
0_
1g
0w
0r
1p
0m
1o
19
1;
1w
0h
0|
1q
1+
1)
0t
1x
1n
18
1<
0=
1:
1r
0p
0i
1*
0-
1,
1(
0x
1{
17
0<
0;
1|
0q
1m
0+
0,
1&
0{
0o
0k
06
09
07
0:
0*
0&
0)
0'
0n
08
0(
#5425000
1#
1_
1y
0?
0/
#5450000
1$
0#
1l
0_
0y
1?
1/
#5475000
1#
1_
